*** hw 5 a
*#destroy all
*#run
*#let Iin=-vs#branch
*#plot Vs Vin Vo
*#plot Iin
*#hardcopy voltages5a.ps Vs Vin Vo
*#hardcopy currents5a.ps iin
.inc 411.lib
.OPTIONS  NODE  NOPAGE
.ic V(Vo)=5V
.tran 100p 50n uic
Vs Vs 0 DC 0 pulse 0 5 10n 0
Rs Vs Vin 1k
Cgd Vin Vo 0.5p
Co  Vo	0 5p 
M1	Vo		Vin		0		0	NMOS05 W=3.5u L=0.7u
.END

