*** Figure 6.11 CMOS: Circuit Design, Layout, and Simulation ***
.option scale=0.5u
.inc 411.lib

.dc VSG	0.6 0.8	1m

VSD VSD	0	DC	2.5
VSG	VSD	VG	DC	0
M2	0 VG VSD VSD PMOS05	W=60 L=2

.control
destroy all
run
let Id=-VSD#branch
set color0=white
set color1=black
plot ID ylog title 'Subtreshold MOS'
print ID
hardcopy SubtreshholdIV.ps ID
.endc

.end
      
