%!PS-Adobe-3.0 EPSF-3.0
%%Creator: nutmeg
%%BoundingBox: 54 54 612 612
1 1 scale
/Helvetica findfont 10 scalefont setfont

[] 0 setdash
[1 2] 0 setdash
[] 0 setdash
243 66 moveto
(v-sweep) show
[1 2] 0 setdash
newpath
84 104 moveto
84 548 lineto
stroke
[] 0 setdash
69 87 moveto
(510.0) show
[1 2] 0 setdash
newpath
181 104 moveto
181 548 lineto
stroke
[] 0 setdash
166 87 moveto
(512.0) show
[1 2] 0 setdash
newpath
278 104 moveto
278 548 lineto
stroke
[] 0 setdash
263 87 moveto
(514.0) show
[1 2] 0 setdash
newpath
375 104 moveto
375 548 lineto
stroke
[] 0 setdash
360 87 moveto
(516.0) show
[1 2] 0 setdash
newpath
472 104 moveto
472 548 lineto
stroke
[] 0 setdash
457 87 moveto
(518.0) show
[1 2] 0 setdash
newpath
569 104 moveto
569 548 lineto
stroke
[] 0 setdash
554 87 moveto
(520.0) show
[1 2] 0 setdash
[] 0 setdash
382 66 moveto
(mV) show
[1 2] 0 setdash
newpath
84 104 moveto
569 104 lineto
stroke
[] 0 setdash
66 101 moveto
(8.0) show
[1 2] 0 setdash
newpath
84 178 moveto
569 178 lineto
stroke
[] 0 setdash
66 175 moveto
(8.5) show
[1 2] 0 setdash
newpath
84 252 moveto
569 252 lineto
stroke
[] 0 setdash
66 249 moveto
(9.0) show
[1 2] 0 setdash
newpath
84 326 moveto
569 326 lineto
stroke
[] 0 setdash
66 323 moveto
(9.5) show
[1 2] 0 setdash
newpath
84 400 moveto
569 400 lineto
stroke
[] 0 setdash
60 397 moveto
(10.0) show
[1 2] 0 setdash
newpath
84 474 moveto
569 474 lineto
stroke
[] 0 setdash
60 471 moveto
(10.5) show
[1 2] 0 setdash
newpath
84 548 moveto
569 548 lineto
stroke
[] 0 setdash
60 545 moveto
(11.0) show
[1 2] 0 setdash
[] 0 setdash
54 582 moveto
(nA) show
[1 2] 0 setdash
[7 7] 0 setdash
newpath
290 586 moveto
314 586 lineto
stroke
[] 0 setdash
320 582 moveto
(id) show
[7 7] 0 setdash
newpath
84 160 moveto
84 161 lineto
85 161 lineto
86 161 lineto
86 162 lineto
87 162 lineto
88 163 lineto
89 163 lineto
90 164 lineto
91 164 lineto
91 165 lineto
92 165 lineto
93 165 lineto
93 166 lineto
94 166 lineto
95 167 lineto
96 167 lineto
97 168 lineto
98 168 lineto
98 169 lineto
99 169 lineto
100 169 lineto
100 170 lineto
101 170 lineto
101 171 lineto
102 171 lineto
103 171 lineto
103 172 lineto
104 172 lineto
105 173 lineto
106 173 lineto
107 174 lineto
108 174 lineto
108 175 lineto
109 175 lineto
110 175 lineto
110 176 lineto
111 176 lineto
112 177 lineto
113 177 lineto
114 178 lineto
115 178 lineto
115 179 lineto
116 179 lineto
117 180 lineto
118 180 lineto
118 181 lineto
119 181 lineto
120 181 lineto
120 182 lineto
121 182 lineto
122 183 lineto
123 183 lineto
124 184 lineto
125 184 lineto
125 185 lineto
126 185 lineto
127 185 lineto
127 186 lineto
128 186 lineto
129 187 lineto
130 187 lineto
131 188 lineto
132 188 lineto
132 189 lineto
133 189 lineto
134 190 lineto
135 190 lineto
135 191 lineto
136 191 lineto
137 192 lineto
138 192 lineto
139 193 lineto
140 193 lineto
140 194 lineto
141 194 lineto
142 194 lineto
142 195 lineto
143 195 lineto
144 196 lineto
145 196 lineto
146 197 lineto
147 197 lineto
147 198 lineto
148 198 lineto
149 198 lineto
149 199 lineto
150 199 lineto
150 200 lineto
151 200 lineto
152 201 lineto
153 201 lineto
154 202 lineto
155 202 lineto
155 203 lineto
156 203 lineto
157 203 lineto
157 204 lineto
158 204 lineto
159 205 lineto
160 205 lineto
161 206 lineto
162 206 lineto
162 207 lineto
163 207 lineto
164 208 lineto
165 208 lineto
165 209 lineto
166 209 lineto
167 210 lineto
168 210 lineto
169 211 lineto
170 211 lineto
170 212 lineto
171 212 lineto
172 213 lineto
173 213 lineto
174 214 lineto
175 214 lineto
175 215 lineto
176 215 lineto
177 215 lineto
177 216 lineto
178 216 lineto
179 217 lineto
180 217 lineto
180 218 lineto
181 218 lineto
182 219 lineto
183 219 lineto
183 220 lineto
184 220 lineto
185 221 lineto
186 221 lineto
187 222 lineto
188 222 lineto
188 223 lineto
189 223 lineto
190 223 lineto
190 224 lineto
191 224 lineto
192 225 lineto
193 225 lineto
193 226 lineto
194 226 lineto
195 226 lineto
195 227 lineto
196 227 lineto
197 228 lineto
198 229 lineto
199 229 lineto
200 230 lineto
201 230 lineto
201 231 lineto
202 231 lineto
203 232 lineto
204 232 lineto
205 233 lineto
206 233 lineto
206 234 lineto
207 234 lineto
208 235 lineto
209 235 lineto
210 236 lineto
211 236 lineto
211 237 lineto
212 237 lineto
213 238 lineto
214 238 lineto
214 239 lineto
215 239 lineto
216 240 lineto
217 240 lineto
217 241 lineto
218 241 lineto
219 241 lineto
219 242 lineto
220 242 lineto
221 243 lineto
222 243 lineto
222 244 lineto
223 244 lineto
224 244 lineto
224 245 lineto
225 245 lineto
226 246 lineto
227 246 lineto
227 247 lineto
228 247 lineto
229 247 lineto
229 248 lineto
230 248 lineto
230 249 lineto
231 249 lineto
232 250 lineto
233 250 lineto
234 251 lineto
235 251 lineto
235 252 lineto
236 252 lineto
237 253 lineto
238 253 lineto
238 254 lineto
239 254 lineto
240 254 lineto
240 255 lineto
241 255 lineto
242 256 lineto
243 256 lineto
243 257 lineto
244 257 lineto
245 257 lineto
245 258 lineto
246 258 lineto
246 259 lineto
247 259 lineto
248 260 lineto
249 260 lineto
249 261 lineto
250 261 lineto
251 261 lineto
251 262 lineto
252 262 lineto
253 263 lineto
254 263 lineto
254 264 lineto
255 264 lineto
256 265 lineto
257 265 lineto
258 266 lineto
259 266 lineto
259 267 lineto
260 267 lineto
261 268 lineto
262 268 lineto
262 269 lineto
263 269 lineto
264 270 lineto
265 270 lineto
265 271 lineto
266 271 lineto
267 272 lineto
268 272 lineto
269 273 lineto
270 273 lineto
270 274 lineto
271 274 lineto
272 275 lineto
273 275 lineto
273 276 lineto
274 276 lineto
275 276 lineto
275 277 lineto
276 277 lineto
277 278 lineto
278 278 lineto
278 279 lineto
279 279 lineto
279 280 lineto
280 280 lineto
281 281 lineto
282 281 lineto
283 282 lineto
284 282 lineto
284 283 lineto
285 283 lineto
286 284 lineto
287 284 lineto
287 285 lineto
288 285 lineto
289 285 lineto
289 286 lineto
290 286 lineto
291 287 lineto
292 287 lineto
292 288 lineto
293 288 lineto
294 289 lineto
295 290 lineto
296 290 lineto
297 291 lineto
298 291 lineto
298 292 lineto
299 292 lineto
300 293 lineto
301 293 lineto
301 294 lineto
302 294 lineto
303 295 lineto
304 295 lineto
305 296 lineto
306 296 lineto
306 297 lineto
307 297 lineto
308 298 lineto
309 298 lineto
309 299 lineto
310 299 lineto
310 300 lineto
311 300 lineto
312 300 lineto
312 301 lineto
313 301 lineto
314 302 lineto
315 302 lineto
315 303 lineto
316 303 lineto
317 304 lineto
318 304 lineto
318 305 lineto
319 305 lineto
320 306 lineto
321 306 lineto
322 307 lineto
323 307 lineto
323 308 lineto
324 308 lineto
325 309 lineto
326 309 lineto
326 310 lineto
327 310 lineto
327 311 lineto
328 311 lineto
329 312 lineto
330 312 lineto
331 313 lineto
332 313 lineto
332 314 lineto
333 314 lineto
334 315 lineto
335 315 lineto
335 316 lineto
336 316 lineto
337 317 lineto
338 317 lineto
338 318 lineto
339 318 lineto
340 318 lineto
340 319 lineto
341 319 lineto
342 320 lineto
343 320 lineto
343 321 lineto
344 321 lineto
344 322 lineto
345 322 lineto
346 323 lineto
347 323 lineto
347 324 lineto
348 324 lineto
349 325 lineto
350 325 lineto
350 326 lineto
351 326 lineto
352 326 lineto
352 327 lineto
353 327 lineto
354 328 lineto
355 328 lineto
355 329 lineto
356 329 lineto
357 330 lineto
358 330 lineto
358 331 lineto
359 331 lineto
359 332 lineto
360 332 lineto
361 333 lineto
362 333 lineto
362 334 lineto
363 334 lineto
364 334 lineto
364 335 lineto
365 335 lineto
366 336 lineto
367 336 lineto
367 337 lineto
368 337 lineto
369 338 lineto
370 338 lineto
370 339 lineto
371 339 lineto
372 340 lineto
373 340 lineto
373 341 lineto
374 341 lineto
375 342 lineto
376 343 lineto
377 343 lineto
377 344 lineto
378 344 lineto
379 345 lineto
380 345 lineto
381 346 lineto
382 346 lineto
382 347 lineto
383 347 lineto
384 348 lineto
385 348 lineto
385 349 lineto
386 349 lineto
387 350 lineto
388 350 lineto
388 351 lineto
389 351 lineto
390 352 lineto
391 352 lineto
391 353 lineto
392 353 lineto
392 354 lineto
393 354 lineto
394 355 lineto
395 355 lineto
395 356 lineto
396 356 lineto
397 357 lineto
398 357 lineto
398 358 lineto
399 358 lineto
400 358 lineto
400 359 lineto
401 359 lineto
402 360 lineto
403 360 lineto
403 361 lineto
404 361 lineto
405 362 lineto
406 362 lineto
406 363 lineto
407 363 lineto
407 364 lineto
408 364 lineto
409 365 lineto
410 365 lineto
410 366 lineto
411 366 lineto
412 367 lineto
413 367 lineto
413 368 lineto
414 368 lineto
415 369 lineto
416 369 lineto
416 370 lineto
417 370 lineto
418 371 lineto
419 371 lineto
419 372 lineto
420 372 lineto
421 373 lineto
422 373 lineto
422 374 lineto
423 374 lineto
423 375 lineto
424 375 lineto
425 376 lineto
426 376 lineto
426 377 lineto
427 377 lineto
428 378 lineto
429 378 lineto
429 379 lineto
430 379 lineto
431 380 lineto
432 380 lineto
432 381 lineto
433 381 lineto
434 382 lineto
435 382 lineto
435 383 lineto
436 383 lineto
437 384 lineto
438 384 lineto
438 385 lineto
439 385 lineto
440 386 lineto
441 387 lineto
442 387 lineto
442 388 lineto
443 388 lineto
444 389 lineto
445 389 lineto
445 390 lineto
446 390 lineto
447 391 lineto
448 391 lineto
448 392 lineto
449 392 lineto
450 393 lineto
451 393 lineto
451 394 lineto
452 394 lineto
453 395 lineto
454 395 lineto
454 396 lineto
455 396 lineto
456 397 lineto
457 398 lineto
458 398 lineto
458 399 lineto
459 399 lineto
460 400 lineto
461 400 lineto
461 401 lineto
462 401 lineto
463 402 lineto
464 402 lineto
464 403 lineto
465 403 lineto
466 404 lineto
467 404 lineto
467 405 lineto
468 405 lineto
469 406 lineto
470 406 lineto
470 407 lineto
471 407 lineto
472 408 lineto
473 409 lineto
474 409 lineto
474 410 lineto
475 410 lineto
476 411 lineto
477 411 lineto
477 412 lineto
478 412 lineto
479 413 lineto
480 413 lineto
480 414 lineto
481 414 lineto
482 415 lineto
483 416 lineto
484 416 lineto
484 417 lineto
485 417 lineto
486 418 lineto
487 418 lineto
487 419 lineto
488 419 lineto
488 420 lineto
489 420 lineto
490 421 lineto
491 421 lineto
491 422 lineto
492 422 lineto
493 423 lineto
494 423 lineto
494 424 lineto
495 424 lineto
496 425 lineto
497 425 lineto
497 426 lineto
498 426 lineto
499 427 lineto
500 427 lineto
500 428 lineto
501 428 lineto
502 429 lineto
503 429 lineto
503 430 lineto
504 430 lineto
504 431 lineto
505 431 lineto
505 432 lineto
506 432 lineto
507 433 lineto
508 433 lineto
508 434 lineto
509 434 lineto
510 435 lineto
511 435 lineto
511 436 lineto
512 436 lineto
513 437 lineto
514 437 lineto
514 438 lineto
515 438 lineto
516 439 lineto
517 439 lineto
517 440 lineto
518 440 lineto
518 441 lineto
519 441 lineto
520 442 lineto
521 443 lineto
522 443 lineto
522 444 lineto
523 444 lineto
524 445 lineto
525 445 lineto
525 446 lineto
526 446 lineto
527 447 lineto
528 447 lineto
528 448 lineto
529 448 lineto
530 449 lineto
531 450 lineto
532 450 lineto
532 451 lineto
533 451 lineto
534 452 lineto
535 452 lineto
535 453 lineto
536 453 lineto
537 454 lineto
538 455 lineto
539 455 lineto
539 456 lineto
540 456 lineto
541 457 lineto
542 458 lineto
543 458 lineto
543 459 lineto
544 459 lineto
545 460 lineto
546 460 lineto
546 461 lineto
547 461 lineto
548 462 lineto
549 462 lineto
549 463 lineto
550 463 lineto
551 464 lineto
552 465 lineto
553 465 lineto
553 466 lineto
554 466 lineto
554 467 lineto
555 467 lineto
556 468 lineto
557 468 lineto
557 469 lineto
558 469 lineto
559 470 lineto
560 470 lineto
560 471 lineto
561 471 lineto
561 472 lineto
562 472 lineto
563 473 lineto
564 473 lineto
564 474 lineto
565 474 lineto
566 475 lineto
567 475 lineto
567 476 lineto
568 476 lineto
569 477 lineto
stroke
showpage
%%EOF
