%!PS-Adobe-3.0 EPSF-3.0
%%Creator: nutmeg
%%BoundingBox: 54 54 612 612
1 1 scale
/Helvetica findfont 10 scalefont setfont

[] 0 setdash
[1 2] 0 setdash
[] 0 setdash
243 66 moveto
(frequency) show
[1 2] 0 setdash
newpath
84 104 moveto
84 545 lineto
stroke
[] 0 setdash
81 87 moveto
(1) show
[1 2] 0 setdash
newpath
128 104 moveto
128 545 lineto
stroke
[] 0 setdash
122 87 moveto
(10) show
[1 2] 0 setdash
newpath
172 104 moveto
172 545 lineto
stroke
[] 0 setdash
163 87 moveto
(100) show
[1 2] 0 setdash
newpath
216 104 moveto
216 545 lineto
stroke
[] 0 setdash
204 87 moveto
(10^3) show
[1 2] 0 setdash
newpath
260 104 moveto
260 545 lineto
stroke
[] 0 setdash
248 87 moveto
(10^4) show
[1 2] 0 setdash
newpath
304 104 moveto
304 545 lineto
stroke
[] 0 setdash
292 87 moveto
(10^5) show
[1 2] 0 setdash
newpath
348 104 moveto
348 545 lineto
stroke
[] 0 setdash
336 87 moveto
(10^6) show
[1 2] 0 setdash
newpath
392 104 moveto
392 545 lineto
stroke
[] 0 setdash
380 87 moveto
(10^7) show
[1 2] 0 setdash
newpath
436 104 moveto
436 545 lineto
stroke
[] 0 setdash
424 87 moveto
(10^8) show
[1 2] 0 setdash
newpath
480 104 moveto
480 545 lineto
stroke
[] 0 setdash
468 87 moveto
(10^9) show
[1 2] 0 setdash
newpath
524 104 moveto
524 545 lineto
stroke
[] 0 setdash
509 87 moveto
(10^10) show
[1 2] 0 setdash
newpath
568 104 moveto
568 545 lineto
stroke
[] 0 setdash
553 87 moveto
(10^11) show
[1 2] 0 setdash
[] 0 setdash
382 66 moveto
(Hz) show
[1 2] 0 setdash
newpath
84 104 moveto
568 104 lineto
stroke
[] 0 setdash
54 101 moveto
(-90.0) show
[1 2] 0 setdash
newpath
84 153 moveto
568 153 lineto
stroke
[] 0 setdash
54 150 moveto
(-80.0) show
[1 2] 0 setdash
newpath
84 202 moveto
568 202 lineto
stroke
[] 0 setdash
54 199 moveto
(-70.0) show
[1 2] 0 setdash
newpath
84 251 moveto
568 251 lineto
stroke
[] 0 setdash
54 248 moveto
(-60.0) show
[1 2] 0 setdash
newpath
84 300 moveto
568 300 lineto
stroke
[] 0 setdash
54 297 moveto
(-50.0) show
[1 2] 0 setdash
newpath
84 349 moveto
568 349 lineto
stroke
[] 0 setdash
54 346 moveto
(-40.0) show
[1 2] 0 setdash
newpath
84 398 moveto
568 398 lineto
stroke
[] 0 setdash
54 395 moveto
(-30.0) show
[1 2] 0 setdash
newpath
84 447 moveto
568 447 lineto
stroke
[] 0 setdash
54 444 moveto
(-20.0) show
[1 2] 0 setdash
newpath
84 496 moveto
568 496 lineto
stroke
[] 0 setdash
54 493 moveto
(-10.0) show
[1 2] 0 setdash
[] 0 setdash
newpath
84 545 moveto
568 545 lineto
stroke
[1 2] 0 setdash
[] 0 setdash
66 542 moveto
(0.0) show
[1 2] 0 setdash
[] 0 setdash
54 582 moveto
(Units) show
[1 2] 0 setdash
[7 7] 0 setdash
newpath
290 586 moveto
314 586 lineto
stroke
[] 0 setdash
320 582 moveto
(db(iout/iin)) show
[7 7] 0 setdash
newpath
84 544 moveto
85 544 lineto
86 544 lineto
87 544 lineto
88 544 lineto
89 544 lineto
90 544 lineto
91 544 lineto
92 544 lineto
93 544 lineto
94 544 lineto
95 544 lineto
96 544 lineto
97 544 lineto
98 544 lineto
99 544 lineto
100 544 lineto
101 544 lineto
102 544 lineto
103 544 lineto
104 544 lineto
105 544 lineto
106 544 lineto
107 544 lineto
108 544 lineto
109 544 lineto
110 544 lineto
111 544 lineto
112 544 lineto
113 544 lineto
114 544 lineto
115 544 lineto
116 544 lineto
117 544 lineto
118 544 lineto
119 544 lineto
120 544 lineto
121 544 lineto
122 544 lineto
123 544 lineto
124 544 lineto
125 544 lineto
126 544 lineto
127 544 lineto
128 544 lineto
129 544 lineto
130 544 lineto
131 544 lineto
132 544 lineto
133 544 lineto
134 544 lineto
135 544 lineto
136 544 lineto
137 544 lineto
138 544 lineto
139 544 lineto
140 544 lineto
141 544 lineto
142 544 lineto
143 544 lineto
144 544 lineto
145 544 lineto
146 544 lineto
147 544 lineto
148 544 lineto
149 544 lineto
150 544 lineto
151 544 lineto
152 544 lineto
153 544 lineto
154 544 lineto
155 544 lineto
156 544 lineto
157 544 lineto
158 544 lineto
159 544 lineto
160 544 lineto
161 544 lineto
162 544 lineto
163 544 lineto
164 544 lineto
165 544 lineto
166 544 lineto
167 544 lineto
168 544 lineto
169 544 lineto
170 544 lineto
171 544 lineto
172 544 lineto
173 544 lineto
174 544 lineto
175 544 lineto
176 544 lineto
177 544 lineto
178 544 lineto
179 544 lineto
180 544 lineto
181 544 lineto
182 544 lineto
183 544 lineto
184 544 lineto
185 544 lineto
186 544 lineto
187 544 lineto
188 544 lineto
189 544 lineto
190 544 lineto
191 544 lineto
192 544 lineto
193 544 lineto
194 544 lineto
195 544 lineto
196 544 lineto
197 544 lineto
198 544 lineto
199 544 lineto
200 544 lineto
201 544 lineto
202 544 lineto
203 544 lineto
204 544 lineto
205 544 lineto
206 544 lineto
207 544 lineto
208 544 lineto
209 544 lineto
210 544 lineto
211 544 lineto
212 544 lineto
213 544 lineto
214 544 lineto
215 544 lineto
216 544 lineto
217 544 lineto
218 544 lineto
219 544 lineto
220 544 lineto
221 544 lineto
222 544 lineto
223 544 lineto
224 544 lineto
225 544 lineto
226 544 lineto
227 544 lineto
228 544 lineto
229 544 lineto
230 544 lineto
231 544 lineto
232 544 lineto
233 544 lineto
234 544 lineto
235 544 lineto
236 544 lineto
237 544 lineto
238 544 lineto
239 544 lineto
240 544 lineto
241 544 lineto
242 544 lineto
243 544 lineto
244 544 lineto
245 544 lineto
245 543 lineto
246 543 lineto
247 543 lineto
248 543 lineto
249 543 lineto
250 543 lineto
251 543 lineto
252 543 lineto
253 543 lineto
253 542 lineto
254 542 lineto
255 542 lineto
256 542 lineto
257 542 lineto
258 541 lineto
259 541 lineto
260 541 lineto
261 541 lineto
261 540 lineto
262 540 lineto
263 540 lineto
264 539 lineto
265 539 lineto
266 538 lineto
267 538 lineto
267 537 lineto
268 537 lineto
269 536 lineto
270 536 lineto
271 535 lineto
271 534 lineto
272 534 lineto
273 533 lineto
274 533 lineto
274 532 lineto
275 532 lineto
275 531 lineto
276 530 lineto
277 529 lineto
278 528 lineto
278 527 lineto
279 527 lineto
279 526 lineto
280 526 lineto
280 525 lineto
281 524 lineto
282 523 lineto
282 522 lineto
283 521 lineto
284 520 lineto
284 519 lineto
285 519 lineto
285 518 lineto
286 517 lineto
286 516 lineto
287 515 lineto
287 514 lineto
288 514 lineto
288 513 lineto
289 512 lineto
289 511 lineto
290 510 lineto
290 509 lineto
291 508 lineto
291 507 lineto
292 507 lineto
292 506 lineto
293 505 lineto
293 504 lineto
293 503 lineto
294 502 lineto
295 501 lineto
295 500 lineto
296 499 lineto
296 498 lineto
297 497 lineto
297 496 lineto
298 495 lineto
298 494 lineto
299 493 lineto
299 492 lineto
300 491 lineto
300 490 lineto
300 489 lineto
301 488 lineto
301 487 lineto
302 486 lineto
302 485 lineto
303 485 lineto
303 484 lineto
304 483 lineto
304 482 lineto
304 481 lineto
305 480 lineto
305 479 lineto
306 478 lineto
306 477 lineto
307 476 lineto
307 475 lineto
308 474 lineto
308 473 lineto
308 472 lineto
309 471 lineto
309 470 lineto
310 469 lineto
310 468 lineto
311 467 lineto
311 466 lineto
311 465 lineto
312 464 lineto
312 463 lineto
313 462 lineto
313 461 lineto
314 460 lineto
314 459 lineto
315 458 lineto
315 457 lineto
315 456 lineto
316 455 lineto
316 454 lineto
317 453 lineto
317 452 lineto
318 451 lineto
318 450 lineto
319 449 lineto
319 448 lineto
319 447 lineto
320 446 lineto
320 445 lineto
321 444 lineto
321 443 lineto
322 441 lineto
322 440 lineto
322 439 lineto
323 438 lineto
323 437 lineto
324 436 lineto
324 435 lineto
325 434 lineto
325 433 lineto
326 432 lineto
326 430 lineto
326 429 lineto
327 428 lineto
327 427 lineto
328 426 lineto
328 425 lineto
329 423 lineto
329 422 lineto
330 421 lineto
330 420 lineto
330 419 lineto
331 417 lineto
331 416 lineto
332 415 lineto
332 414 lineto
333 412 lineto
333 411 lineto
333 410 lineto
334 408 lineto
334 407 lineto
335 406 lineto
335 404 lineto
336 403 lineto
336 402 lineto
337 400 lineto
337 399 lineto
337 398 lineto
338 396 lineto
338 395 lineto
339 393 lineto
339 392 lineto
340 390 lineto
340 389 lineto
341 387 lineto
341 386 lineto
341 384 lineto
342 383 lineto
342 381 lineto
343 379 lineto
343 378 lineto
344 376 lineto
344 375 lineto
344 373 lineto
345 371 lineto
345 370 lineto
346 368 lineto
346 366 lineto
347 364 lineto
347 363 lineto
348 361 lineto
348 359 lineto
348 357 lineto
349 356 lineto
349 354 lineto
350 352 lineto
350 350 lineto
351 348 lineto
351 346 lineto
352 344 lineto
352 342 lineto
352 341 lineto
353 339 lineto
353 337 lineto
354 335 lineto
354 333 lineto
355 331 lineto
355 329 lineto
355 327 lineto
356 325 lineto
356 323 lineto
357 321 lineto
357 319 lineto
358 317 lineto
358 315 lineto
359 313 lineto
359 311 lineto
359 309 lineto
360 307 lineto
360 305 lineto
361 303 lineto
361 301 lineto
362 299 lineto
362 297 lineto
363 295 lineto
363 293 lineto
363 291 lineto
364 289 lineto
364 287 lineto
365 285 lineto
365 283 lineto
366 281 lineto
366 279 lineto
366 277 lineto
367 275 lineto
367 273 lineto
368 271 lineto
368 270 lineto
369 268 lineto
369 266 lineto
370 264 lineto
370 262 lineto
370 260 lineto
371 258 lineto
371 257 lineto
372 255 lineto
372 253 lineto
373 251 lineto
373 250 lineto
374 248 lineto
374 246 lineto
374 244 lineto
375 243 lineto
375 241 lineto
376 239 lineto
376 238 lineto
377 236 lineto
377 235 lineto
377 233 lineto
378 231 lineto
378 230 lineto
379 228 lineto
379 227 lineto
380 225 lineto
380 224 lineto
381 222 lineto
381 221 lineto
381 220 lineto
382 218 lineto
382 217 lineto
383 215 lineto
383 214 lineto
384 213 lineto
384 211 lineto
385 210 lineto
385 209 lineto
385 208 lineto
386 206 lineto
386 205 lineto
387 204 lineto
387 203 lineto
388 202 lineto
388 201 lineto
388 199 lineto
389 198 lineto
389 197 lineto
390 196 lineto
390 195 lineto
391 194 lineto
391 193 lineto
392 192 lineto
392 191 lineto
392 190 lineto
393 189 lineto
393 188 lineto
394 187 lineto
395 186 lineto
395 185 lineto
396 184 lineto
396 183 lineto
396 182 lineto
397 182 lineto
397 181 lineto
398 180 lineto
398 179 lineto
399 179 lineto
399 178 lineto
399 177 lineto
400 177 lineto
400 176 lineto
401 175 lineto
402 174 lineto
403 173 lineto
403 172 lineto
404 172 lineto
404 171 lineto
405 171 lineto
405 170 lineto
406 170 lineto
406 169 lineto
407 169 lineto
407 168 lineto
408 168 lineto
408 167 lineto
409 167 lineto
409 166 lineto
410 166 lineto
410 165 lineto
411 165 lineto
412 165 lineto
412 164 lineto
413 164 lineto
414 163 lineto
415 163 lineto
416 162 lineto
417 162 lineto
418 162 lineto
418 161 lineto
419 161 lineto
420 161 lineto
421 161 lineto
421 160 lineto
422 160 lineto
423 160 lineto
424 160 lineto
425 160 lineto
425 159 lineto
426 159 lineto
427 159 lineto
428 159 lineto
429 159 lineto
430 159 lineto
431 159 lineto
432 159 lineto
432 158 lineto
433 158 lineto
434 158 lineto
435 158 lineto
436 158 lineto
437 158 lineto
438 158 lineto
439 158 lineto
440 158 lineto
441 158 lineto
442 158 lineto
443 158 lineto
444 158 lineto
445 158 lineto
446 158 lineto
447 158 lineto
448 158 lineto
449 158 lineto
450 158 lineto
451 158 lineto
452 158 lineto
453 158 lineto
454 158 lineto
455 158 lineto
456 158 lineto
457 158 lineto
458 158 lineto
459 158 lineto
460 158 lineto
461 158 lineto
462 158 lineto
463 158 lineto
464 158 lineto
465 158 lineto
466 158 lineto
467 158 lineto
468 158 lineto
469 158 lineto
470 158 lineto
471 158 lineto
472 158 lineto
473 158 lineto
474 158 lineto
475 158 lineto
476 158 lineto
477 158 lineto
478 158 lineto
479 158 lineto
480 158 lineto
481 158 lineto
482 158 lineto
483 158 lineto
484 158 lineto
485 158 lineto
486 158 lineto
487 158 lineto
488 158 lineto
489 158 lineto
490 158 lineto
491 158 lineto
492 158 lineto
493 158 lineto
494 158 lineto
495 158 lineto
496 158 lineto
497 158 lineto
498 158 lineto
499 158 lineto
500 158 lineto
501 158 lineto
502 158 lineto
503 158 lineto
504 158 lineto
505 158 lineto
506 158 lineto
507 158 lineto
508 158 lineto
509 158 lineto
510 158 lineto
511 157 lineto
512 157 lineto
513 157 lineto
514 157 lineto
515 157 lineto
516 157 lineto
517 157 lineto
518 157 lineto
519 157 lineto
520 157 lineto
521 157 lineto
522 157 lineto
523 157 lineto
524 157 lineto
525 157 lineto
526 157 lineto
527 157 lineto
528 157 lineto
529 157 lineto
530 157 lineto
531 157 lineto
532 157 lineto
533 157 lineto
534 157 lineto
535 157 lineto
536 157 lineto
537 157 lineto
538 156 lineto
539 156 lineto
540 156 lineto
541 156 lineto
542 156 lineto
543 156 lineto
544 156 lineto
544 155 lineto
545 155 lineto
546 155 lineto
547 155 lineto
548 155 lineto
548 154 lineto
549 154 lineto
550 154 lineto
551 154 lineto
551 153 lineto
552 153 lineto
553 153 lineto
553 152 lineto
554 152 lineto
555 152 lineto
556 151 lineto
557 151 lineto
557 150 lineto
558 150 lineto
559 149 lineto
560 149 lineto
560 148 lineto
561 148 lineto
561 147 lineto
562 147 lineto
563 146 lineto
564 145 lineto
565 144 lineto
566 143 lineto
567 142 lineto
568 141 lineto
stroke
showpage
%%EOF
