%!PS-Adobe-3.0 EPSF-3.0
%%Creator: nutmeg
%%BoundingBox: 54 54 612 612
1 1 scale
/Helvetica findfont 10 scalefont setfont

[] 0 setdash
[1 2] 0 setdash
[] 0 setdash
243 66 moveto
(frequency) show
[1 2] 0 setdash
newpath
78 104 moveto
78 544 lineto
stroke
[] 0 setdash
75 87 moveto
(1) show
[1 2] 0 setdash
newpath
123 104 moveto
123 544 lineto
stroke
[] 0 setdash
117 87 moveto
(10) show
[1 2] 0 setdash
newpath
168 104 moveto
168 544 lineto
stroke
[] 0 setdash
159 87 moveto
(100) show
[1 2] 0 setdash
newpath
213 104 moveto
213 544 lineto
stroke
[] 0 setdash
201 87 moveto
(10^3) show
[1 2] 0 setdash
newpath
258 104 moveto
258 544 lineto
stroke
[] 0 setdash
246 87 moveto
(10^4) show
[1 2] 0 setdash
newpath
303 104 moveto
303 544 lineto
stroke
[] 0 setdash
291 87 moveto
(10^5) show
[1 2] 0 setdash
newpath
348 104 moveto
348 544 lineto
stroke
[] 0 setdash
336 87 moveto
(10^6) show
[1 2] 0 setdash
newpath
393 104 moveto
393 544 lineto
stroke
[] 0 setdash
381 87 moveto
(10^7) show
[1 2] 0 setdash
newpath
438 104 moveto
438 544 lineto
stroke
[] 0 setdash
426 87 moveto
(10^8) show
[1 2] 0 setdash
newpath
483 104 moveto
483 544 lineto
stroke
[] 0 setdash
471 87 moveto
(10^9) show
[1 2] 0 setdash
newpath
528 104 moveto
528 544 lineto
stroke
[] 0 setdash
513 87 moveto
(10^10) show
[1 2] 0 setdash
newpath
573 104 moveto
573 544 lineto
stroke
[] 0 setdash
558 87 moveto
(10^11) show
[1 2] 0 setdash
[] 0 setdash
382 66 moveto
(Hz) show
[1 2] 0 setdash
newpath
78 104 moveto
573 104 lineto
stroke
[] 0 setdash
54 101 moveto
(-4.0) show
[1 2] 0 setdash
newpath
78 159 moveto
573 159 lineto
stroke
[] 0 setdash
54 156 moveto
(-3.0) show
[1 2] 0 setdash
newpath
78 214 moveto
573 214 lineto
stroke
[] 0 setdash
54 211 moveto
(-2.0) show
[1 2] 0 setdash
newpath
78 269 moveto
573 269 lineto
stroke
[] 0 setdash
54 266 moveto
(-1.0) show
[1 2] 0 setdash
[] 0 setdash
newpath
78 324 moveto
573 324 lineto
stroke
[1 2] 0 setdash
[] 0 setdash
60 321 moveto
(0.0) show
[1 2] 0 setdash
newpath
78 379 moveto
573 379 lineto
stroke
[] 0 setdash
60 376 moveto
(1.0) show
[1 2] 0 setdash
newpath
78 434 moveto
573 434 lineto
stroke
[] 0 setdash
60 431 moveto
(2.0) show
[1 2] 0 setdash
newpath
78 489 moveto
573 489 lineto
stroke
[] 0 setdash
60 486 moveto
(3.0) show
[1 2] 0 setdash
newpath
78 544 moveto
573 544 lineto
stroke
[] 0 setdash
60 541 moveto
(4.0) show
[1 2] 0 setdash
[] 0 setdash
54 582 moveto
(Units) show
[1 2] 0 setdash
[7 7] 0 setdash
newpath
295 586 moveto
319 586 lineto
stroke
[] 0 setdash
325 582 moveto
(phase(myphase)) show
[7 7] 0 setdash
newpath
78 324 moveto
79 324 lineto
80 324 lineto
81 324 lineto
82 324 lineto
83 324 lineto
84 324 lineto
85 324 lineto
86 324 lineto
87 324 lineto
88 324 lineto
89 324 lineto
90 324 lineto
91 324 lineto
92 324 lineto
93 324 lineto
94 324 lineto
95 324 lineto
96 324 lineto
97 324 lineto
98 324 lineto
99 324 lineto
100 324 lineto
101 324 lineto
102 324 lineto
103 324 lineto
104 324 lineto
105 324 lineto
106 324 lineto
107 324 lineto
108 324 lineto
109 324 lineto
110 324 lineto
111 324 lineto
112 324 lineto
113 324 lineto
114 324 lineto
115 324 lineto
116 324 lineto
117 324 lineto
118 324 lineto
119 324 lineto
120 324 lineto
121 324 lineto
122 324 lineto
123 324 lineto
124 324 lineto
125 324 lineto
126 324 lineto
127 324 lineto
128 324 lineto
129 324 lineto
130 324 lineto
131 324 lineto
132 324 lineto
133 324 lineto
134 324 lineto
135 324 lineto
136 324 lineto
137 324 lineto
138 324 lineto
139 324 lineto
140 324 lineto
141 324 lineto
142 324 lineto
143 324 lineto
144 324 lineto
145 324 lineto
146 324 lineto
147 324 lineto
148 324 lineto
149 324 lineto
150 324 lineto
151 324 lineto
152 324 lineto
153 324 lineto
154 324 lineto
155 324 lineto
156 324 lineto
157 324 lineto
158 324 lineto
159 324 lineto
160 324 lineto
161 324 lineto
162 324 lineto
163 324 lineto
164 324 lineto
165 324 lineto
166 324 lineto
167 324 lineto
168 324 lineto
169 324 lineto
170 324 lineto
171 324 lineto
172 324 lineto
173 324 lineto
174 324 lineto
175 324 lineto
176 324 lineto
177 324 lineto
178 324 lineto
179 324 lineto
180 324 lineto
181 324 lineto
182 324 lineto
183 323 lineto
184 323 lineto
185 323 lineto
186 323 lineto
187 323 lineto
188 323 lineto
189 323 lineto
190 323 lineto
191 323 lineto
192 323 lineto
193 323 lineto
194 323 lineto
195 323 lineto
196 323 lineto
197 323 lineto
198 323 lineto
199 323 lineto
200 323 lineto
201 323 lineto
202 323 lineto
203 323 lineto
204 323 lineto
204 322 lineto
205 322 lineto
206 322 lineto
207 322 lineto
208 322 lineto
209 322 lineto
210 322 lineto
211 322 lineto
212 322 lineto
213 322 lineto
214 322 lineto
214 321 lineto
215 321 lineto
216 321 lineto
217 321 lineto
218 321 lineto
219 321 lineto
220 321 lineto
221 320 lineto
222 320 lineto
223 320 lineto
224 320 lineto
225 320 lineto
226 319 lineto
227 319 lineto
228 319 lineto
229 319 lineto
230 318 lineto
231 318 lineto
232 318 lineto
233 317 lineto
234 317 lineto
235 317 lineto
235 316 lineto
236 316 lineto
237 316 lineto
238 316 lineto
238 315 lineto
239 315 lineto
240 315 lineto
240 314 lineto
241 314 lineto
242 314 lineto
242 313 lineto
243 313 lineto
244 313 lineto
244 312 lineto
245 312 lineto
246 311 lineto
247 311 lineto
248 310 lineto
249 310 lineto
249 309 lineto
250 309 lineto
250 308 lineto
251 308 lineto
252 307 lineto
253 306 lineto
254 305 lineto
255 304 lineto
256 304 lineto
256 303 lineto
257 303 lineto
257 302 lineto
258 302 lineto
258 301 lineto
259 300 lineto
260 299 lineto
261 298 lineto
262 297 lineto
262 296 lineto
263 296 lineto
263 295 lineto
264 295 lineto
264 294 lineto
265 293 lineto
266 292 lineto
267 291 lineto
267 290 lineto
268 289 lineto
269 288 lineto
269 287 lineto
270 287 lineto
270 286 lineto
271 285 lineto
271 284 lineto
272 283 lineto
273 282 lineto
273 281 lineto
274 281 lineto
274 280 lineto
275 279 lineto
276 278 lineto
276 277 lineto
277 276 lineto
277 275 lineto
278 275 lineto
278 274 lineto
279 273 lineto
280 272 lineto
280 271 lineto
281 270 lineto
281 269 lineto
282 269 lineto
282 268 lineto
283 267 lineto
284 266 lineto
284 265 lineto
285 265 lineto
285 264 lineto
285 263 lineto
286 263 lineto
286 262 lineto
287 262 lineto
287 261 lineto
288 260 lineto
289 259 lineto
289 258 lineto
290 257 lineto
291 256 lineto
292 255 lineto
293 254 lineto
293 253 lineto
294 253 lineto
294 252 lineto
295 251 lineto
296 250 lineto
297 249 lineto
298 248 lineto
298 247 lineto
299 247 lineto
299 246 lineto
300 246 lineto
300 245 lineto
301 245 lineto
301 244 lineto
302 244 lineto
302 243 lineto
303 243 lineto
303 242 lineto
304 241 lineto
305 240 lineto
306 240 lineto
306 239 lineto
307 239 lineto
307 238 lineto
308 237 lineto
309 236 lineto
310 235 lineto
311 234 lineto
312 233 lineto
312 232 lineto
313 232 lineto
314 231 lineto
315 230 lineto
316 229 lineto
316 228 lineto
317 228 lineto
317 227 lineto
318 227 lineto
318 226 lineto
319 225 lineto
320 224 lineto
321 223 lineto
321 222 lineto
322 222 lineto
322 221 lineto
323 220 lineto
324 219 lineto
325 218 lineto
325 217 lineto
326 216 lineto
327 215 lineto
327 214 lineto
328 214 lineto
328 213 lineto
329 212 lineto
330 211 lineto
330 210 lineto
331 209 lineto
331 208 lineto
332 208 lineto
332 207 lineto
333 206 lineto
333 205 lineto
334 205 lineto
334 204 lineto
334 203 lineto
335 202 lineto
336 201 lineto
336 200 lineto
337 199 lineto
338 198 lineto
338 197 lineto
339 196 lineto
339 195 lineto
340 194 lineto
340 193 lineto
341 192 lineto
342 191 lineto
342 190 lineto
343 189 lineto
343 188 lineto
344 187 lineto
344 186 lineto
345 186 lineto
345 185 lineto
346 184 lineto
346 183 lineto
347 183 lineto
347 182 lineto
348 181 lineto
348 180 lineto
349 179 lineto
350 178 lineto
350 177 lineto
351 177 lineto
351 176 lineto
352 176 lineto
352 175 lineto
352 174 lineto
353 174 lineto
353 173 lineto
354 173 lineto
354 172 lineto
355 172 lineto
356 171 lineto
357 170 lineto
358 169 lineto
359 169 lineto
360 168 lineto
361 168 lineto
362 168 lineto
362 167 lineto
363 167 lineto
364 167 lineto
365 167 lineto
366 167 lineto
367 168 lineto
368 168 lineto
369 168 lineto
370 168 lineto
370 169 lineto
371 169 lineto
372 169 lineto
372 170 lineto
373 170 lineto
374 170 lineto
374 171 lineto
375 171 lineto
376 172 lineto
377 172 lineto
378 173 lineto
379 173 lineto
379 174 lineto
380 174 lineto
381 175 lineto
382 175 lineto
383 176 lineto
384 176 lineto
384 177 lineto
385 177 lineto
386 177 lineto
387 177 lineto
387 178 lineto
388 178 lineto
389 178 lineto
390 178 lineto
391 178 lineto
391 179 lineto
392 179 lineto
393 179 lineto
394 179 lineto
394 178 lineto
395 178 lineto
396 178 lineto
397 178 lineto
398 178 lineto
399 177 lineto
400 177 lineto
401 177 lineto
401 176 lineto
402 176 lineto
403 176 lineto
403 175 lineto
404 175 lineto
405 175 lineto
405 174 lineto
406 174 lineto
406 173 lineto
407 173 lineto
408 173 lineto
408 172 lineto
409 172 lineto
410 171 lineto
411 171 lineto
411 170 lineto
412 170 lineto
413 169 lineto
414 169 lineto
414 168 lineto
415 168 lineto
416 167 lineto
417 167 lineto
417 166 lineto
418 166 lineto
419 166 lineto
419 165 lineto
420 165 lineto
420 164 lineto
421 164 lineto
422 164 lineto
422 163 lineto
423 163 lineto
424 163 lineto
424 162 lineto
425 162 lineto
426 162 lineto
426 161 lineto
427 161 lineto
428 161 lineto
428 160 lineto
429 160 lineto
430 160 lineto
431 159 lineto
432 159 lineto
433 159 lineto
433 158 lineto
434 158 lineto
435 158 lineto
436 158 lineto
436 157 lineto
437 157 lineto
438 157 lineto
439 157 lineto
440 156 lineto
441 156 lineto
442 156 lineto
443 156 lineto
444 155 lineto
445 155 lineto
446 155 lineto
447 155 lineto
448 155 lineto
449 154 lineto
450 154 lineto
451 154 lineto
452 154 lineto
453 154 lineto
454 154 lineto
455 154 lineto
455 153 lineto
456 153 lineto
457 153 lineto
458 153 lineto
459 153 lineto
460 153 lineto
461 153 lineto
462 153 lineto
463 153 lineto
464 153 lineto
465 152 lineto
466 152 lineto
467 152 lineto
468 152 lineto
469 152 lineto
470 152 lineto
471 152 lineto
472 152 lineto
473 152 lineto
474 152 lineto
475 152 lineto
476 152 lineto
477 152 lineto
478 152 lineto
478 151 lineto
479 151 lineto
480 151 lineto
481 151 lineto
482 151 lineto
483 151 lineto
483 497 lineto
484 497 lineto
485 497 lineto
486 497 lineto
487 497 lineto
487 496 lineto
488 496 lineto
489 496 lineto
490 496 lineto
491 496 lineto
492 496 lineto
493 496 lineto
494 496 lineto
495 496 lineto
496 496 lineto
497 496 lineto
498 496 lineto
499 496 lineto
500 496 lineto
501 496 lineto
501 495 lineto
502 495 lineto
503 495 lineto
504 495 lineto
505 495 lineto
506 495 lineto
507 495 lineto
508 495 lineto
509 495 lineto
510 495 lineto
510 494 lineto
511 494 lineto
512 494 lineto
513 494 lineto
514 494 lineto
515 494 lineto
516 494 lineto
517 494 lineto
517 493 lineto
518 493 lineto
519 493 lineto
520 493 lineto
521 493 lineto
522 493 lineto
522 492 lineto
523 492 lineto
524 492 lineto
525 492 lineto
526 492 lineto
526 491 lineto
527 491 lineto
528 491 lineto
529 491 lineto
529 490 lineto
530 490 lineto
531 490 lineto
532 490 lineto
532 489 lineto
533 489 lineto
534 489 lineto
535 488 lineto
536 488 lineto
537 488 lineto
537 487 lineto
538 487 lineto
539 487 lineto
539 486 lineto
540 486 lineto
541 486 lineto
541 485 lineto
542 485 lineto
543 484 lineto
544 484 lineto
544 483 lineto
545 483 lineto
546 482 lineto
547 481 lineto
548 481 lineto
548 480 lineto
549 480 lineto
550 479 lineto
551 478 lineto
552 477 lineto
553 477 lineto
553 476 lineto
554 476 lineto
554 475 lineto
555 475 lineto
555 474 lineto
556 474 lineto
556 473 lineto
557 473 lineto
557 472 lineto
558 472 lineto
558 471 lineto
559 471 lineto
559 470 lineto
560 469 lineto
561 468 lineto
561 467 lineto
562 467 lineto
562 466 lineto
563 466 lineto
563 465 lineto
564 465 lineto
564 464 lineto
565 463 lineto
565 462 lineto
566 462 lineto
566 461 lineto
567 461 lineto
567 460 lineto
568 460 lineto
568 459 lineto
568 458 lineto
569 458 lineto
569 457 lineto
570 457 lineto
570 456 lineto
571 455 lineto
572 454 lineto
573 453 lineto
573 452 lineto
stroke
showpage
%%EOF
