%!PS-Adobe-3.0 EPSF-3.0
%%Creator: nutmeg
%%BoundingBox: 54 54 612 612
1 1 scale
/Helvetica findfont 10 scalefont setfont

[] 0 setdash
[1 2] 0 setdash
[] 0 setdash
243 66 moveto
(v-sweep) show
[1 2] 0 setdash
[] 0 setdash
newpath
78 104 moveto
78 548 lineto
stroke
[1 2] 0 setdash
[] 0 setdash
69 87 moveto
(0.0) show
[1 2] 0 setdash
newpath
127 104 moveto
127 548 lineto
stroke
[] 0 setdash
118 87 moveto
(0.5) show
[1 2] 0 setdash
newpath
176 104 moveto
176 548 lineto
stroke
[] 0 setdash
167 87 moveto
(1.0) show
[1 2] 0 setdash
newpath
225 104 moveto
225 548 lineto
stroke
[] 0 setdash
216 87 moveto
(1.5) show
[1 2] 0 setdash
newpath
274 104 moveto
274 548 lineto
stroke
[] 0 setdash
265 87 moveto
(2.0) show
[1 2] 0 setdash
newpath
323 104 moveto
323 548 lineto
stroke
[] 0 setdash
314 87 moveto
(2.5) show
[1 2] 0 setdash
newpath
372 104 moveto
372 548 lineto
stroke
[] 0 setdash
363 87 moveto
(3.0) show
[1 2] 0 setdash
newpath
421 104 moveto
421 548 lineto
stroke
[] 0 setdash
412 87 moveto
(3.5) show
[1 2] 0 setdash
newpath
470 104 moveto
470 548 lineto
stroke
[] 0 setdash
461 87 moveto
(4.0) show
[1 2] 0 setdash
newpath
519 104 moveto
519 548 lineto
stroke
[] 0 setdash
510 87 moveto
(4.5) show
[1 2] 0 setdash
newpath
568 104 moveto
568 548 lineto
stroke
[] 0 setdash
559 87 moveto
(5.0) show
[1 2] 0 setdash
[] 0 setdash
382 66 moveto
(V) show
[1 2] 0 setdash
[] 0 setdash
newpath
78 104 moveto
568 104 lineto
stroke
[1 2] 0 setdash
[] 0 setdash
60 101 moveto
(0.0) show
[1 2] 0 setdash
newpath
78 178 moveto
568 178 lineto
stroke
[] 0 setdash
60 175 moveto
(0.5) show
[1 2] 0 setdash
newpath
78 252 moveto
568 252 lineto
stroke
[] 0 setdash
60 249 moveto
(1.0) show
[1 2] 0 setdash
newpath
78 326 moveto
568 326 lineto
stroke
[] 0 setdash
60 323 moveto
(1.5) show
[1 2] 0 setdash
newpath
78 400 moveto
568 400 lineto
stroke
[] 0 setdash
60 397 moveto
(2.0) show
[1 2] 0 setdash
newpath
78 474 moveto
568 474 lineto
stroke
[] 0 setdash
60 471 moveto
(2.5) show
[1 2] 0 setdash
newpath
78 548 moveto
568 548 lineto
stroke
[] 0 setdash
60 545 moveto
(3.0) show
[1 2] 0 setdash
[] 0 setdash
54 582 moveto
(mA) show
[1 2] 0 setdash
[7 7] 0 setdash
newpath
293 586 moveto
317 586 lineto
stroke
[] 0 setdash
323 582 moveto
(id) show
[7 7] 0 setdash
newpath
78 104 moveto
79 104 lineto
80 104 lineto
81 104 lineto
82 104 lineto
83 104 lineto
84 104 lineto
85 104 lineto
86 104 lineto
87 104 lineto
88 104 lineto
89 104 lineto
90 104 lineto
91 104 lineto
92 104 lineto
93 104 lineto
94 104 lineto
95 104 lineto
96 104 lineto
97 104 lineto
98 104 lineto
99 104 lineto
100 104 lineto
101 104 lineto
102 104 lineto
103 104 lineto
104 104 lineto
105 104 lineto
106 104 lineto
107 104 lineto
108 104 lineto
109 104 lineto
110 104 lineto
111 104 lineto
112 104 lineto
113 104 lineto
114 104 lineto
115 104 lineto
116 104 lineto
117 104 lineto
118 104 lineto
119 104 lineto
120 104 lineto
121 104 lineto
122 104 lineto
123 104 lineto
124 104 lineto
125 104 lineto
126 104 lineto
127 104 lineto
128 104 lineto
129 104 lineto
130 104 lineto
131 104 lineto
132 104 lineto
133 104 lineto
134 104 lineto
135 104 lineto
136 104 lineto
137 104 lineto
138 104 lineto
139 104 lineto
140 104 lineto
141 104 lineto
142 104 lineto
143 104 lineto
144 104 lineto
145 104 lineto
146 104 lineto
147 104 lineto
148 104 lineto
149 104 lineto
150 104 lineto
151 104 lineto
152 104 lineto
153 104 lineto
154 104 lineto
155 104 lineto
156 104 lineto
157 104 lineto
158 104 lineto
159 104 lineto
160 104 lineto
161 104 lineto
162 104 lineto
163 104 lineto
164 104 lineto
165 104 lineto
166 104 lineto
167 104 lineto
168 104 lineto
169 104 lineto
170 104 lineto
171 104 lineto
172 104 lineto
173 104 lineto
174 104 lineto
175 104 lineto
175 105 lineto
176 105 lineto
177 105 lineto
178 105 lineto
179 105 lineto
180 105 lineto
181 105 lineto
182 105 lineto
183 105 lineto
183 106 lineto
184 106 lineto
185 106 lineto
186 106 lineto
187 106 lineto
188 107 lineto
189 107 lineto
190 107 lineto
191 107 lineto
192 107 lineto
192 108 lineto
193 108 lineto
194 108 lineto
195 108 lineto
195 109 lineto
196 109 lineto
197 109 lineto
198 109 lineto
198 110 lineto
199 110 lineto
200 110 lineto
201 110 lineto
201 111 lineto
202 111 lineto
203 111 lineto
204 111 lineto
204 112 lineto
205 112 lineto
206 112 lineto
207 112 lineto
207 113 lineto
208 113 lineto
209 113 lineto
209 114 lineto
210 114 lineto
211 114 lineto
212 114 lineto
212 115 lineto
213 115 lineto
214 115 lineto
214 116 lineto
215 116 lineto
216 116 lineto
216 117 lineto
217 117 lineto
218 117 lineto
219 117 lineto
219 118 lineto
220 118 lineto
221 118 lineto
221 119 lineto
222 119 lineto
223 119 lineto
223 120 lineto
224 120 lineto
225 120 lineto
225 121 lineto
226 121 lineto
227 121 lineto
227 122 lineto
228 122 lineto
229 122 lineto
229 123 lineto
230 123 lineto
231 123 lineto
231 124 lineto
232 124 lineto
233 125 lineto
234 125 lineto
234 126 lineto
235 126 lineto
236 126 lineto
236 127 lineto
237 127 lineto
238 127 lineto
238 128 lineto
239 128 lineto
240 128 lineto
240 129 lineto
241 129 lineto
241 130 lineto
242 130 lineto
243 130 lineto
243 131 lineto
244 131 lineto
245 131 lineto
245 132 lineto
246 132 lineto
246 133 lineto
247 133 lineto
248 133 lineto
248 134 lineto
249 134 lineto
249 135 lineto
250 135 lineto
251 135 lineto
251 136 lineto
252 136 lineto
253 136 lineto
253 137 lineto
254 137 lineto
254 138 lineto
255 138 lineto
256 138 lineto
256 139 lineto
257 139 lineto
257 140 lineto
258 140 lineto
259 140 lineto
259 141 lineto
260 141 lineto
260 142 lineto
261 142 lineto
262 142 lineto
262 143 lineto
263 143 lineto
263 144 lineto
264 144 lineto
265 145 lineto
266 145 lineto
266 146 lineto
267 146 lineto
268 147 lineto
269 147 lineto
269 148 lineto
270 148 lineto
270 149 lineto
271 149 lineto
272 149 lineto
272 150 lineto
273 150 lineto
273 151 lineto
274 151 lineto
275 151 lineto
275 152 lineto
276 152 lineto
276 153 lineto
277 153 lineto
278 154 lineto
279 154 lineto
279 155 lineto
280 155 lineto
280 156 lineto
281 156 lineto
282 156 lineto
282 157 lineto
283 157 lineto
283 158 lineto
284 158 lineto
285 159 lineto
286 159 lineto
286 160 lineto
287 160 lineto
287 161 lineto
288 161 lineto
289 161 lineto
289 162 lineto
290 162 lineto
290 163 lineto
291 163 lineto
292 163 lineto
292 164 lineto
293 164 lineto
293 165 lineto
294 165 lineto
295 166 lineto
296 166 lineto
296 167 lineto
297 167 lineto
298 168 lineto
299 168 lineto
299 169 lineto
300 169 lineto
300 170 lineto
301 170 lineto
302 170 lineto
302 171 lineto
303 171 lineto
303 172 lineto
304 172 lineto
305 172 lineto
305 173 lineto
306 173 lineto
307 174 lineto
308 174 lineto
308 175 lineto
309 175 lineto
310 175 lineto
310 176 lineto
311 176 lineto
311 177 lineto
312 177 lineto
313 177 lineto
313 178 lineto
314 178 lineto
314 179 lineto
315 179 lineto
316 179 lineto
316 180 lineto
317 180 lineto
318 181 lineto
319 181 lineto
319 182 lineto
320 182 lineto
321 182 lineto
321 183 lineto
322 183 lineto
322 184 lineto
323 184 lineto
324 184 lineto
324 185 lineto
325 185 lineto
326 185 lineto
326 186 lineto
327 186 lineto
327 187 lineto
328 187 lineto
329 187 lineto
329 188 lineto
330 188 lineto
331 188 lineto
331 189 lineto
332 189 lineto
333 189 lineto
333 190 lineto
334 190 lineto
334 191 lineto
335 191 lineto
336 191 lineto
336 192 lineto
337 192 lineto
338 192 lineto
338 193 lineto
339 193 lineto
340 194 lineto
341 194 lineto
341 195 lineto
342 195 lineto
343 195 lineto
343 196 lineto
344 196 lineto
345 196 lineto
345 197 lineto
346 197 lineto
347 197 lineto
347 198 lineto
348 198 lineto
349 198 lineto
349 199 lineto
350 199 lineto
351 200 lineto
352 200 lineto
352 201 lineto
353 201 lineto
354 201 lineto
354 202 lineto
355 202 lineto
356 202 lineto
356 203 lineto
357 203 lineto
358 203 lineto
358 204 lineto
359 204 lineto
360 204 lineto
360 205 lineto
361 205 lineto
362 205 lineto
362 206 lineto
363 206 lineto
364 206 lineto
364 207 lineto
365 207 lineto
366 207 lineto
366 208 lineto
367 208 lineto
368 208 lineto
368 209 lineto
369 209 lineto
370 209 lineto
370 210 lineto
371 210 lineto
372 210 lineto
372 211 lineto
373 211 lineto
374 211 lineto
374 212 lineto
375 212 lineto
376 212 lineto
376 213 lineto
377 213 lineto
378 213 lineto
378 214 lineto
379 214 lineto
380 214 lineto
381 214 lineto
381 215 lineto
382 215 lineto
383 215 lineto
383 216 lineto
384 216 lineto
385 216 lineto
385 217 lineto
386 217 lineto
387 217 lineto
387 218 lineto
388 218 lineto
389 218 lineto
389 219 lineto
390 219 lineto
391 219 lineto
392 219 lineto
392 220 lineto
393 220 lineto
394 220 lineto
394 221 lineto
395 221 lineto
396 221 lineto
396 222 lineto
397 222 lineto
398 222 lineto
398 223 lineto
399 223 lineto
400 223 lineto
401 223 lineto
401 224 lineto
402 224 lineto
403 224 lineto
403 225 lineto
404 225 lineto
405 225 lineto
405 226 lineto
406 226 lineto
407 226 lineto
408 226 lineto
408 227 lineto
409 227 lineto
410 227 lineto
410 228 lineto
411 228 lineto
412 228 lineto
413 228 lineto
413 229 lineto
414 229 lineto
415 229 lineto
415 230 lineto
416 230 lineto
417 230 lineto
418 231 lineto
419 231 lineto
420 231 lineto
420 232 lineto
421 232 lineto
422 232 lineto
423 233 lineto
424 233 lineto
425 233 lineto
425 234 lineto
426 234 lineto
427 234 lineto
428 234 lineto
428 235 lineto
429 235 lineto
430 235 lineto
430 236 lineto
431 236 lineto
432 236 lineto
433 236 lineto
433 237 lineto
434 237 lineto
435 237 lineto
436 237 lineto
436 238 lineto
437 238 lineto
438 238 lineto
438 239 lineto
439 239 lineto
440 239 lineto
441 239 lineto
441 240 lineto
442 240 lineto
443 240 lineto
444 240 lineto
444 241 lineto
445 241 lineto
446 241 lineto
446 242 lineto
447 242 lineto
448 242 lineto
449 242 lineto
449 243 lineto
450 243 lineto
451 243 lineto
452 243 lineto
452 244 lineto
453 244 lineto
454 244 lineto
455 244 lineto
455 245 lineto
456 245 lineto
457 245 lineto
458 245 lineto
458 246 lineto
459 246 lineto
460 246 lineto
461 246 lineto
461 247 lineto
462 247 lineto
463 247 lineto
464 247 lineto
464 248 lineto
465 248 lineto
466 248 lineto
467 248 lineto
467 249 lineto
468 249 lineto
469 249 lineto
470 249 lineto
470 250 lineto
471 250 lineto
472 250 lineto
473 250 lineto
473 251 lineto
474 251 lineto
475 251 lineto
476 251 lineto
476 252 lineto
477 252 lineto
478 252 lineto
479 252 lineto
479 253 lineto
480 253 lineto
481 253 lineto
482 253 lineto
482 254 lineto
483 254 lineto
484 254 lineto
485 254 lineto
485 255 lineto
486 255 lineto
487 255 lineto
488 255 lineto
489 256 lineto
490 256 lineto
491 256 lineto
492 256 lineto
492 257 lineto
493 257 lineto
494 257 lineto
495 257 lineto
495 258 lineto
496 258 lineto
497 258 lineto
498 258 lineto
498 259 lineto
499 259 lineto
500 259 lineto
501 259 lineto
502 259 lineto
502 260 lineto
503 260 lineto
504 260 lineto
505 260 lineto
505 261 lineto
506 261 lineto
507 261 lineto
508 261 lineto
509 261 lineto
509 262 lineto
510 262 lineto
511 262 lineto
512 262 lineto
512 263 lineto
513 263 lineto
514 263 lineto
515 263 lineto
516 264 lineto
517 264 lineto
518 264 lineto
519 264 lineto
519 265 lineto
520 265 lineto
521 265 lineto
522 265 lineto
523 265 lineto
523 266 lineto
524 266 lineto
525 266 lineto
526 266 lineto
526 267 lineto
527 267 lineto
528 267 lineto
529 267 lineto
530 267 lineto
530 268 lineto
531 268 lineto
532 268 lineto
533 268 lineto
534 268 lineto
534 269 lineto
535 269 lineto
536 269 lineto
537 269 lineto
538 269 lineto
538 270 lineto
539 270 lineto
540 270 lineto
541 270 lineto
541 271 lineto
542 271 lineto
543 271 lineto
544 271 lineto
545 271 lineto
545 272 lineto
546 272 lineto
547 272 lineto
548 272 lineto
549 272 lineto
549 273 lineto
550 273 lineto
551 273 lineto
552 273 lineto
553 273 lineto
553 274 lineto
554 274 lineto
555 274 lineto
556 274 lineto
557 274 lineto
557 275 lineto
558 275 lineto
559 275 lineto
560 275 lineto
561 275 lineto
561 276 lineto
562 276 lineto
563 276 lineto
564 276 lineto
565 276 lineto
565 277 lineto
566 277 lineto
567 277 lineto
568 277 lineto
stroke
newpath
78 104 moveto
79 104 lineto
80 104 lineto
81 104 lineto
82 104 lineto
83 104 lineto
84 104 lineto
85 104 lineto
86 104 lineto
87 104 lineto
88 104 lineto
89 104 lineto
90 104 lineto
91 104 lineto
92 104 lineto
93 104 lineto
94 104 lineto
95 104 lineto
96 104 lineto
97 104 lineto
98 104 lineto
99 104 lineto
100 104 lineto
101 104 lineto
102 104 lineto
103 104 lineto
104 104 lineto
105 104 lineto
106 104 lineto
107 104 lineto
108 104 lineto
109 104 lineto
110 104 lineto
111 104 lineto
112 104 lineto
113 104 lineto
114 104 lineto
115 104 lineto
116 104 lineto
117 104 lineto
118 104 lineto
119 104 lineto
120 104 lineto
121 104 lineto
122 104 lineto
123 104 lineto
124 104 lineto
125 104 lineto
126 104 lineto
127 104 lineto
128 104 lineto
129 104 lineto
130 104 lineto
131 104 lineto
132 104 lineto
133 104 lineto
134 104 lineto
135 104 lineto
136 104 lineto
137 104 lineto
138 104 lineto
139 104 lineto
140 104 lineto
141 104 lineto
142 104 lineto
143 104 lineto
144 104 lineto
145 104 lineto
146 104 lineto
147 104 lineto
148 104 lineto
149 104 lineto
150 104 lineto
151 104 lineto
152 104 lineto
153 104 lineto
154 104 lineto
155 104 lineto
156 104 lineto
157 104 lineto
158 104 lineto
159 104 lineto
160 104 lineto
161 104 lineto
162 104 lineto
163 104 lineto
164 104 lineto
165 104 lineto
166 104 lineto
167 104 lineto
168 104 lineto
169 104 lineto
170 104 lineto
171 104 lineto
172 104 lineto
173 104 lineto
174 104 lineto
174 105 lineto
175 105 lineto
176 105 lineto
177 105 lineto
178 105 lineto
179 105 lineto
180 105 lineto
181 105 lineto
182 105 lineto
182 106 lineto
183 106 lineto
184 106 lineto
185 106 lineto
186 106 lineto
187 106 lineto
187 107 lineto
188 107 lineto
189 107 lineto
190 107 lineto
191 107 lineto
191 108 lineto
192 108 lineto
193 108 lineto
194 108 lineto
195 109 lineto
196 109 lineto
197 109 lineto
198 109 lineto
198 110 lineto
199 110 lineto
200 110 lineto
201 111 lineto
202 111 lineto
203 111 lineto
203 112 lineto
204 112 lineto
205 112 lineto
206 112 lineto
206 113 lineto
207 113 lineto
208 113 lineto
208 114 lineto
209 114 lineto
210 114 lineto
211 114 lineto
211 115 lineto
212 115 lineto
213 115 lineto
213 116 lineto
214 116 lineto
215 116 lineto
215 117 lineto
216 117 lineto
217 117 lineto
217 118 lineto
218 118 lineto
219 118 lineto
220 119 lineto
221 119 lineto
221 120 lineto
222 120 lineto
223 120 lineto
223 121 lineto
224 121 lineto
225 121 lineto
225 122 lineto
226 122 lineto
227 122 lineto
227 123 lineto
228 123 lineto
229 123 lineto
229 124 lineto
230 124 lineto
231 124 lineto
231 125 lineto
232 125 lineto
233 126 lineto
234 126 lineto
234 127 lineto
235 127 lineto
236 127 lineto
236 128 lineto
237 128 lineto
238 128 lineto
238 129 lineto
239 129 lineto
239 130 lineto
240 130 lineto
241 130 lineto
241 131 lineto
242 131 lineto
242 132 lineto
243 132 lineto
244 132 lineto
244 133 lineto
245 133 lineto
246 134 lineto
247 134 lineto
247 135 lineto
248 135 lineto
249 135 lineto
249 136 lineto
250 136 lineto
250 137 lineto
251 137 lineto
252 138 lineto
253 138 lineto
253 139 lineto
254 139 lineto
254 140 lineto
255 140 lineto
256 140 lineto
256 141 lineto
257 141 lineto
257 142 lineto
258 142 lineto
259 142 lineto
259 143 lineto
260 143 lineto
260 144 lineto
261 144 lineto
261 145 lineto
262 145 lineto
263 145 lineto
263 146 lineto
264 146 lineto
264 147 lineto
265 147 lineto
265 148 lineto
266 148 lineto
267 148 lineto
267 149 lineto
268 149 lineto
268 150 lineto
269 150 lineto
269 151 lineto
270 151 lineto
271 151 lineto
271 152 lineto
272 152 lineto
272 153 lineto
273 153 lineto
273 154 lineto
274 154 lineto
274 155 lineto
275 155 lineto
276 155 lineto
276 156 lineto
277 156 lineto
277 157 lineto
278 157 lineto
278 158 lineto
279 158 lineto
279 159 lineto
280 159 lineto
281 159 lineto
281 160 lineto
282 160 lineto
282 161 lineto
283 161 lineto
283 162 lineto
284 162 lineto
284 163 lineto
285 163 lineto
285 164 lineto
286 164 lineto
287 164 lineto
287 165 lineto
288 165 lineto
288 166 lineto
289 166 lineto
289 167 lineto
290 167 lineto
290 168 lineto
291 168 lineto
291 169 lineto
292 169 lineto
293 170 lineto
294 170 lineto
294 171 lineto
295 171 lineto
295 172 lineto
296 172 lineto
296 173 lineto
297 173 lineto
297 174 lineto
298 174 lineto
298 175 lineto
299 175 lineto
299 176 lineto
300 176 lineto
300 177 lineto
301 177 lineto
302 178 lineto
303 178 lineto
303 179 lineto
304 179 lineto
304 180 lineto
305 180 lineto
305 181 lineto
306 181 lineto
306 182 lineto
307 182 lineto
307 183 lineto
308 183 lineto
308 184 lineto
309 184 lineto
309 185 lineto
310 185 lineto
310 186 lineto
311 186 lineto
311 187 lineto
312 187 lineto
313 188 lineto
314 189 lineto
315 190 lineto
316 190 lineto
316 191 lineto
317 191 lineto
317 192 lineto
318 192 lineto
318 193 lineto
319 193 lineto
319 194 lineto
320 194 lineto
320 195 lineto
321 195 lineto
321 196 lineto
322 196 lineto
322 197 lineto
323 197 lineto
323 198 lineto
324 198 lineto
324 199 lineto
325 199 lineto
325 200 lineto
326 200 lineto
326 201 lineto
327 201 lineto
327 202 lineto
328 202 lineto
328 203 lineto
329 203 lineto
329 204 lineto
330 204 lineto
330 205 lineto
331 205 lineto
331 206 lineto
332 206 lineto
332 207 lineto
333 207 lineto
333 208 lineto
334 208 lineto
334 209 lineto
335 209 lineto
335 210 lineto
336 210 lineto
336 211 lineto
337 211 lineto
337 212 lineto
338 212 lineto
338 213 lineto
339 213 lineto
339 214 lineto
340 214 lineto
340 215 lineto
341 215 lineto
341 216 lineto
342 216 lineto
342 217 lineto
343 217 lineto
343 218 lineto
344 218 lineto
344 219 lineto
345 219 lineto
345 220 lineto
346 220 lineto
346 221 lineto
347 221 lineto
347 222 lineto
348 222 lineto
348 223 lineto
349 223 lineto
349 224 lineto
350 224 lineto
350 225 lineto
351 225 lineto
351 226 lineto
352 226 lineto
352 227 lineto
353 227 lineto
353 228 lineto
354 228 lineto
354 229 lineto
355 229 lineto
355 230 lineto
356 230 lineto
356 231 lineto
357 231 lineto
357 232 lineto
358 232 lineto
358 233 lineto
359 233 lineto
359 234 lineto
360 234 lineto
360 235 lineto
361 235 lineto
361 236 lineto
362 236 lineto
362 237 lineto
363 237 lineto
363 238 lineto
364 238 lineto
364 239 lineto
365 239 lineto
365 240 lineto
366 240 lineto
366 241 lineto
367 242 lineto
367 243 lineto
368 243 lineto
368 244 lineto
369 244 lineto
369 245 lineto
370 245 lineto
370 246 lineto
371 246 lineto
371 247 lineto
372 247 lineto
372 248 lineto
373 248 lineto
373 249 lineto
374 249 lineto
374 250 lineto
375 250 lineto
375 251 lineto
376 251 lineto
376 252 lineto
377 252 lineto
377 253 lineto
378 253 lineto
378 254 lineto
379 254 lineto
379 255 lineto
380 255 lineto
380 256 lineto
381 256 lineto
381 257 lineto
382 257 lineto
382 258 lineto
383 258 lineto
383 259 lineto
384 259 lineto
384 260 lineto
385 260 lineto
385 261 lineto
386 261 lineto
386 262 lineto
387 262 lineto
387 263 lineto
388 264 lineto
389 265 lineto
389 266 lineto
390 266 lineto
390 267 lineto
391 267 lineto
391 268 lineto
392 268 lineto
392 269 lineto
393 269 lineto
393 270 lineto
394 270 lineto
394 271 lineto
395 271 lineto
395 272 lineto
396 272 lineto
396 273 lineto
397 273 lineto
397 274 lineto
398 274 lineto
398 275 lineto
399 275 lineto
399 276 lineto
400 276 lineto
400 277 lineto
401 277 lineto
401 278 lineto
402 278 lineto
402 279 lineto
403 279 lineto
403 280 lineto
404 280 lineto
404 281 lineto
405 281 lineto
405 282 lineto
406 282 lineto
406 283 lineto
407 283 lineto
407 284 lineto
408 284 lineto
408 285 lineto
409 285 lineto
409 286 lineto
410 286 lineto
410 287 lineto
411 287 lineto
411 288 lineto
412 288 lineto
412 289 lineto
413 289 lineto
413 290 lineto
414 290 lineto
414 291 lineto
415 291 lineto
415 292 lineto
416 292 lineto
416 293 lineto
417 293 lineto
417 294 lineto
418 294 lineto
418 295 lineto
419 295 lineto
419 296 lineto
420 296 lineto
420 297 lineto
421 297 lineto
421 298 lineto
422 298 lineto
422 299 lineto
423 299 lineto
423 300 lineto
424 300 lineto
424 301 lineto
425 301 lineto
425 302 lineto
426 302 lineto
426 303 lineto
427 303 lineto
428 304 lineto
429 305 lineto
430 305 lineto
430 306 lineto
431 306 lineto
431 307 lineto
432 307 lineto
432 308 lineto
433 308 lineto
433 309 lineto
434 309 lineto
434 310 lineto
435 310 lineto
435 311 lineto
436 311 lineto
436 312 lineto
437 312 lineto
437 313 lineto
438 313 lineto
438 314 lineto
439 314 lineto
440 315 lineto
441 315 lineto
441 316 lineto
442 316 lineto
442 317 lineto
443 317 lineto
443 318 lineto
444 318 lineto
444 319 lineto
445 319 lineto
445 320 lineto
446 320 lineto
446 321 lineto
447 321 lineto
447 322 lineto
448 322 lineto
449 323 lineto
450 323 lineto
450 324 lineto
451 324 lineto
451 325 lineto
452 325 lineto
452 326 lineto
453 326 lineto
453 327 lineto
454 327 lineto
454 328 lineto
455 328 lineto
456 329 lineto
457 329 lineto
457 330 lineto
458 330 lineto
458 331 lineto
459 331 lineto
459 332 lineto
460 332 lineto
460 333 lineto
461 333 lineto
462 334 lineto
463 334 lineto
463 335 lineto
464 335 lineto
464 336 lineto
465 336 lineto
465 337 lineto
466 337 lineto
466 338 lineto
467 338 lineto
468 338 lineto
468 339 lineto
469 339 lineto
469 340 lineto
470 340 lineto
470 341 lineto
471 341 lineto
471 342 lineto
472 342 lineto
473 342 lineto
473 343 lineto
474 343 lineto
474 344 lineto
475 344 lineto
475 345 lineto
476 345 lineto
476 346 lineto
477 346 lineto
478 346 lineto
478 347 lineto
479 347 lineto
479 348 lineto
480 348 lineto
480 349 lineto
481 349 lineto
482 349 lineto
482 350 lineto
483 350 lineto
483 351 lineto
484 351 lineto
484 352 lineto
485 352 lineto
486 353 lineto
487 353 lineto
487 354 lineto
488 354 lineto
488 355 lineto
489 355 lineto
490 355 lineto
490 356 lineto
491 356 lineto
491 357 lineto
492 357 lineto
492 358 lineto
493 358 lineto
494 358 lineto
494 359 lineto
495 359 lineto
495 360 lineto
496 360 lineto
496 361 lineto
497 361 lineto
498 361 lineto
498 362 lineto
499 362 lineto
499 363 lineto
500 363 lineto
500 364 lineto
501 364 lineto
502 364 lineto
502 365 lineto
503 365 lineto
503 366 lineto
504 366 lineto
505 366 lineto
505 367 lineto
506 367 lineto
506 368 lineto
507 368 lineto
508 369 lineto
509 369 lineto
509 370 lineto
510 370 lineto
510 371 lineto
511 371 lineto
512 371 lineto
512 372 lineto
513 372 lineto
513 373 lineto
514 373 lineto
515 373 lineto
515 374 lineto
516 374 lineto
516 375 lineto
517 375 lineto
518 375 lineto
518 376 lineto
519 376 lineto
519 377 lineto
520 377 lineto
521 377 lineto
521 378 lineto
522 378 lineto
522 379 lineto
523 379 lineto
524 379 lineto
524 380 lineto
525 380 lineto
525 381 lineto
526 381 lineto
527 381 lineto
527 382 lineto
528 382 lineto
528 383 lineto
529 383 lineto
530 383 lineto
530 384 lineto
531 384 lineto
531 385 lineto
532 385 lineto
533 385 lineto
533 386 lineto
534 386 lineto
534 387 lineto
535 387 lineto
536 387 lineto
536 388 lineto
537 388 lineto
538 388 lineto
538 389 lineto
539 389 lineto
539 390 lineto
540 390 lineto
541 390 lineto
541 391 lineto
542 391 lineto
542 392 lineto
543 392 lineto
544 392 lineto
544 393 lineto
545 393 lineto
546 393 lineto
546 394 lineto
547 394 lineto
547 395 lineto
548 395 lineto
549 395 lineto
549 396 lineto
550 396 lineto
551 397 lineto
552 397 lineto
552 398 lineto
553 398 lineto
554 398 lineto
554 399 lineto
555 399 lineto
556 400 lineto
557 400 lineto
557 401 lineto
558 401 lineto
559 401 lineto
559 402 lineto
560 402 lineto
561 402 lineto
561 403 lineto
562 403 lineto
562 404 lineto
563 404 lineto
564 404 lineto
564 405 lineto
565 405 lineto
566 405 lineto
566 406 lineto
567 406 lineto
568 407 lineto
stroke
newpath
78 104 moveto
79 104 lineto
80 104 lineto
81 104 lineto
82 104 lineto
83 104 lineto
84 104 lineto
85 104 lineto
86 104 lineto
87 104 lineto
88 104 lineto
89 104 lineto
90 104 lineto
91 104 lineto
92 104 lineto
93 104 lineto
94 104 lineto
95 104 lineto
96 104 lineto
97 104 lineto
98 104 lineto
99 104 lineto
100 104 lineto
101 104 lineto
102 104 lineto
103 104 lineto
104 104 lineto
105 104 lineto
106 104 lineto
107 104 lineto
108 104 lineto
109 104 lineto
110 104 lineto
111 104 lineto
112 104 lineto
113 104 lineto
114 104 lineto
115 104 lineto
116 104 lineto
117 104 lineto
118 104 lineto
119 104 lineto
120 104 lineto
121 104 lineto
122 104 lineto
123 104 lineto
124 104 lineto
125 104 lineto
126 104 lineto
127 104 lineto
128 104 lineto
129 104 lineto
130 104 lineto
131 104 lineto
132 104 lineto
133 104 lineto
134 104 lineto
135 104 lineto
136 104 lineto
137 104 lineto
138 104 lineto
139 104 lineto
140 104 lineto
141 104 lineto
142 104 lineto
143 104 lineto
144 104 lineto
145 104 lineto
146 104 lineto
147 104 lineto
148 104 lineto
149 104 lineto
150 104 lineto
151 104 lineto
152 104 lineto
153 104 lineto
154 104 lineto
155 104 lineto
156 104 lineto
157 104 lineto
158 104 lineto
159 104 lineto
160 104 lineto
161 104 lineto
162 104 lineto
163 104 lineto
164 104 lineto
165 104 lineto
166 104 lineto
167 104 lineto
168 104 lineto
169 104 lineto
170 104 lineto
171 104 lineto
172 104 lineto
173 104 lineto
174 104 lineto
174 105 lineto
175 105 lineto
176 105 lineto
177 105 lineto
178 105 lineto
179 105 lineto
180 105 lineto
181 105 lineto
182 105 lineto
182 106 lineto
183 106 lineto
184 106 lineto
185 106 lineto
186 106 lineto
187 107 lineto
188 107 lineto
189 107 lineto
190 107 lineto
191 108 lineto
192 108 lineto
193 108 lineto
194 108 lineto
194 109 lineto
195 109 lineto
196 109 lineto
197 109 lineto
197 110 lineto
198 110 lineto
199 110 lineto
200 110 lineto
200 111 lineto
201 111 lineto
202 111 lineto
203 111 lineto
203 112 lineto
204 112 lineto
205 112 lineto
205 113 lineto
206 113 lineto
207 113 lineto
208 113 lineto
208 114 lineto
209 114 lineto
210 114 lineto
210 115 lineto
211 115 lineto
212 115 lineto
212 116 lineto
213 116 lineto
214 116 lineto
214 117 lineto
215 117 lineto
216 117 lineto
217 118 lineto
218 118 lineto
219 118 lineto
219 119 lineto
220 119 lineto
221 120 lineto
222 120 lineto
223 121 lineto
224 121 lineto
224 122 lineto
225 122 lineto
226 122 lineto
226 123 lineto
227 123 lineto
228 123 lineto
228 124 lineto
229 124 lineto
230 124 lineto
230 125 lineto
231 125 lineto
232 126 lineto
233 126 lineto
233 127 lineto
234 127 lineto
235 127 lineto
235 128 lineto
236 128 lineto
237 129 lineto
238 129 lineto
238 130 lineto
239 130 lineto
240 130 lineto
240 131 lineto
241 131 lineto
241 132 lineto
242 132 lineto
243 132 lineto
243 133 lineto
244 133 lineto
244 134 lineto
245 134 lineto
246 134 lineto
246 135 lineto
247 135 lineto
247 136 lineto
248 136 lineto
249 136 lineto
249 137 lineto
250 137 lineto
250 138 lineto
251 138 lineto
252 138 lineto
252 139 lineto
253 139 lineto
253 140 lineto
254 140 lineto
254 141 lineto
255 141 lineto
256 141 lineto
256 142 lineto
257 142 lineto
257 143 lineto
258 143 lineto
259 143 lineto
259 144 lineto
260 144 lineto
260 145 lineto
261 145 lineto
261 146 lineto
262 146 lineto
263 146 lineto
263 147 lineto
264 147 lineto
264 148 lineto
265 148 lineto
265 149 lineto
266 149 lineto
267 150 lineto
268 150 lineto
268 151 lineto
269 151 lineto
269 152 lineto
270 152 lineto
270 153 lineto
271 153 lineto
272 154 lineto
273 154 lineto
273 155 lineto
274 155 lineto
274 156 lineto
275 156 lineto
275 157 lineto
276 157 lineto
276 158 lineto
277 158 lineto
278 158 lineto
278 159 lineto
279 159 lineto
279 160 lineto
280 160 lineto
280 161 lineto
281 161 lineto
281 162 lineto
282 162 lineto
282 163 lineto
283 163 lineto
284 163 lineto
284 164 lineto
285 164 lineto
285 165 lineto
286 165 lineto
286 166 lineto
287 166 lineto
287 167 lineto
288 167 lineto
288 168 lineto
289 168 lineto
289 169 lineto
290 169 lineto
290 170 lineto
291 170 lineto
292 171 lineto
293 171 lineto
293 172 lineto
294 172 lineto
294 173 lineto
295 173 lineto
295 174 lineto
296 174 lineto
296 175 lineto
297 175 lineto
297 176 lineto
298 176 lineto
298 177 lineto
299 177 lineto
299 178 lineto
300 178 lineto
300 179 lineto
301 179 lineto
301 180 lineto
302 180 lineto
303 181 lineto
304 182 lineto
305 183 lineto
306 183 lineto
306 184 lineto
307 184 lineto
307 185 lineto
308 185 lineto
308 186 lineto
309 186 lineto
309 187 lineto
310 187 lineto
310 188 lineto
311 188 lineto
311 189 lineto
312 189 lineto
312 190 lineto
313 190 lineto
313 191 lineto
314 191 lineto
314 192 lineto
315 192 lineto
315 193 lineto
316 193 lineto
316 194 lineto
317 194 lineto
317 195 lineto
318 195 lineto
318 196 lineto
319 196 lineto
319 197 lineto
320 197 lineto
320 198 lineto
321 198 lineto
321 199 lineto
322 199 lineto
322 200 lineto
323 200 lineto
323 201 lineto
324 201 lineto
324 202 lineto
325 202 lineto
325 203 lineto
326 203 lineto
326 204 lineto
327 204 lineto
327 205 lineto
328 205 lineto
328 206 lineto
329 206 lineto
329 207 lineto
330 207 lineto
330 208 lineto
331 208 lineto
331 209 lineto
332 209 lineto
332 210 lineto
333 210 lineto
333 211 lineto
334 211 lineto
334 212 lineto
335 212 lineto
335 213 lineto
336 213 lineto
336 214 lineto
337 215 lineto
338 216 lineto
338 217 lineto
339 217 lineto
339 218 lineto
340 218 lineto
340 219 lineto
341 219 lineto
341 220 lineto
342 220 lineto
342 221 lineto
343 221 lineto
343 222 lineto
344 222 lineto
344 223 lineto
345 223 lineto
345 224 lineto
346 224 lineto
346 225 lineto
347 225 lineto
347 226 lineto
348 226 lineto
348 227 lineto
349 227 lineto
349 228 lineto
350 228 lineto
350 229 lineto
351 230 lineto
351 231 lineto
352 231 lineto
352 232 lineto
353 232 lineto
353 233 lineto
354 233 lineto
354 234 lineto
355 234 lineto
355 235 lineto
356 235 lineto
356 236 lineto
357 236 lineto
357 237 lineto
358 237 lineto
358 238 lineto
359 238 lineto
359 239 lineto
360 240 lineto
361 241 lineto
361 242 lineto
362 242 lineto
362 243 lineto
363 243 lineto
363 244 lineto
364 244 lineto
364 245 lineto
365 245 lineto
365 246 lineto
366 246 lineto
366 247 lineto
367 247 lineto
367 248 lineto
368 249 lineto
368 250 lineto
369 250 lineto
369 251 lineto
370 251 lineto
370 252 lineto
371 252 lineto
371 253 lineto
372 253 lineto
372 254 lineto
373 254 lineto
373 255 lineto
374 255 lineto
374 256 lineto
375 257 lineto
375 258 lineto
376 258 lineto
376 259 lineto
377 259 lineto
377 260 lineto
378 260 lineto
378 261 lineto
379 261 lineto
379 262 lineto
380 262 lineto
380 263 lineto
381 263 lineto
381 264 lineto
382 265 lineto
382 266 lineto
383 266 lineto
383 267 lineto
384 267 lineto
384 268 lineto
385 268 lineto
385 269 lineto
386 269 lineto
386 270 lineto
387 270 lineto
387 271 lineto
387 272 lineto
388 272 lineto
388 273 lineto
389 273 lineto
389 274 lineto
390 274 lineto
390 275 lineto
391 275 lineto
391 276 lineto
392 276 lineto
392 277 lineto
393 278 lineto
393 279 lineto
394 279 lineto
394 280 lineto
395 280 lineto
395 281 lineto
396 281 lineto
396 282 lineto
397 282 lineto
397 283 lineto
398 284 lineto
398 285 lineto
399 285 lineto
399 286 lineto
400 286 lineto
400 287 lineto
401 287 lineto
401 288 lineto
402 288 lineto
402 289 lineto
403 290 lineto
403 291 lineto
404 291 lineto
404 292 lineto
405 292 lineto
405 293 lineto
406 293 lineto
406 294 lineto
407 294 lineto
407 295 lineto
408 296 lineto
408 297 lineto
409 297 lineto
409 298 lineto
410 298 lineto
410 299 lineto
411 299 lineto
411 300 lineto
412 300 lineto
412 301 lineto
412 302 lineto
413 302 lineto
413 303 lineto
414 303 lineto
414 304 lineto
415 304 lineto
415 305 lineto
416 305 lineto
416 306 lineto
417 307 lineto
417 308 lineto
418 308 lineto
418 309 lineto
419 309 lineto
419 310 lineto
420 310 lineto
420 311 lineto
421 311 lineto
421 312 lineto
421 313 lineto
422 313 lineto
422 314 lineto
423 314 lineto
423 315 lineto
424 315 lineto
424 316 lineto
425 316 lineto
425 317 lineto
426 318 lineto
426 319 lineto
427 319 lineto
427 320 lineto
428 320 lineto
428 321 lineto
429 321 lineto
429 322 lineto
430 323 lineto
430 324 lineto
431 324 lineto
431 325 lineto
432 325 lineto
432 326 lineto
433 326 lineto
433 327 lineto
434 327 lineto
434 328 lineto
434 329 lineto
435 329 lineto
435 330 lineto
436 330 lineto
436 331 lineto
437 331 lineto
437 332 lineto
438 332 lineto
438 333 lineto
438 334 lineto
439 334 lineto
439 335 lineto
440 335 lineto
440 336 lineto
441 336 lineto
441 337 lineto
442 337 lineto
442 338 lineto
442 339 lineto
443 339 lineto
443 340 lineto
444 340 lineto
444 341 lineto
445 341 lineto
445 342 lineto
446 343 lineto
446 344 lineto
447 344 lineto
447 345 lineto
448 345 lineto
448 346 lineto
449 346 lineto
449 347 lineto
450 347 lineto
450 348 lineto
450 349 lineto
451 349 lineto
451 350 lineto
452 350 lineto
452 351 lineto
453 351 lineto
453 352 lineto
454 352 lineto
454 353 lineto
454 354 lineto
455 354 lineto
455 355 lineto
456 355 lineto
456 356 lineto
457 356 lineto
457 357 lineto
458 358 lineto
458 359 lineto
459 359 lineto
459 360 lineto
460 360 lineto
460 361 lineto
461 361 lineto
461 362 lineto
462 363 lineto
462 364 lineto
463 364 lineto
463 365 lineto
464 365 lineto
464 366 lineto
465 366 lineto
465 367 lineto
466 368 lineto
466 369 lineto
467 369 lineto
467 370 lineto
468 370 lineto
468 371 lineto
469 371 lineto
469 372 lineto
470 373 lineto
470 374 lineto
471 374 lineto
471 375 lineto
472 375 lineto
472 376 lineto
473 376 lineto
473 377 lineto
474 378 lineto
474 379 lineto
475 379 lineto
475 380 lineto
476 380 lineto
476 381 lineto
477 381 lineto
477 382 lineto
478 383 lineto
478 384 lineto
479 384 lineto
479 385 lineto
480 385 lineto
480 386 lineto
481 386 lineto
481 387 lineto
481 388 lineto
482 388 lineto
482 389 lineto
483 389 lineto
483 390 lineto
484 390 lineto
484 391 lineto
485 391 lineto
485 392 lineto
485 393 lineto
486 393 lineto
486 394 lineto
487 394 lineto
487 395 lineto
488 395 lineto
488 396 lineto
489 396 lineto
489 397 lineto
490 398 lineto
490 399 lineto
491 399 lineto
491 400 lineto
492 400 lineto
492 401 lineto
493 401 lineto
493 402 lineto
494 403 lineto
494 404 lineto
495 404 lineto
495 405 lineto
496 405 lineto
496 406 lineto
497 406 lineto
497 407 lineto
498 407 lineto
498 408 lineto
498 409 lineto
499 409 lineto
499 410 lineto
500 410 lineto
500 411 lineto
501 411 lineto
501 412 lineto
502 412 lineto
502 413 lineto
503 414 lineto
503 415 lineto
504 415 lineto
504 416 lineto
505 416 lineto
505 417 lineto
506 417 lineto
506 418 lineto
507 419 lineto
507 420 lineto
508 420 lineto
508 421 lineto
509 421 lineto
509 422 lineto
510 422 lineto
510 423 lineto
511 423 lineto
511 424 lineto
512 425 lineto
512 426 lineto
513 426 lineto
513 427 lineto
514 427 lineto
514 428 lineto
515 428 lineto
515 429 lineto
516 429 lineto
516 430 lineto
517 431 lineto
517 432 lineto
518 432 lineto
518 433 lineto
519 433 lineto
519 434 lineto
520 434 lineto
520 435 lineto
521 435 lineto
521 436 lineto
522 436 lineto
522 437 lineto
523 438 lineto
523 439 lineto
524 439 lineto
524 440 lineto
525 440 lineto
525 441 lineto
526 441 lineto
526 442 lineto
527 442 lineto
527 443 lineto
528 443 lineto
528 444 lineto
529 445 lineto
529 446 lineto
530 446 lineto
530 447 lineto
531 447 lineto
531 448 lineto
532 448 lineto
532 449 lineto
533 449 lineto
533 450 lineto
534 450 lineto
534 451 lineto
535 451 lineto
535 452 lineto
536 453 lineto
536 454 lineto
537 454 lineto
537 455 lineto
538 455 lineto
538 456 lineto
539 456 lineto
539 457 lineto
540 457 lineto
540 458 lineto
541 458 lineto
541 459 lineto
542 459 lineto
542 460 lineto
543 460 lineto
543 461 lineto
544 462 lineto
544 463 lineto
545 463 lineto
545 464 lineto
546 464 lineto
546 465 lineto
547 465 lineto
547 466 lineto
548 466 lineto
548 467 lineto
549 467 lineto
549 468 lineto
550 468 lineto
550 469 lineto
551 469 lineto
551 470 lineto
552 470 lineto
552 471 lineto
553 471 lineto
553 472 lineto
554 472 lineto
554 473 lineto
555 473 lineto
555 474 lineto
556 474 lineto
556 475 lineto
557 476 lineto
558 477 lineto
558 478 lineto
559 478 lineto
559 479 lineto
560 479 lineto
560 480 lineto
561 480 lineto
561 481 lineto
562 481 lineto
562 482 lineto
563 482 lineto
563 483 lineto
564 483 lineto
564 484 lineto
565 484 lineto
565 485 lineto
566 485 lineto
566 486 lineto
567 486 lineto
567 487 lineto
568 487 lineto
stroke
newpath
78 104 moveto
79 104 lineto
80 104 lineto
81 104 lineto
82 104 lineto
83 104 lineto
84 104 lineto
85 104 lineto
86 104 lineto
87 104 lineto
88 104 lineto
89 104 lineto
90 104 lineto
91 104 lineto
92 104 lineto
93 104 lineto
94 104 lineto
95 104 lineto
96 104 lineto
97 104 lineto
98 104 lineto
99 104 lineto
100 104 lineto
101 104 lineto
102 104 lineto
103 104 lineto
104 104 lineto
105 104 lineto
106 104 lineto
107 104 lineto
108 104 lineto
109 104 lineto
110 104 lineto
111 104 lineto
112 104 lineto
113 104 lineto
114 104 lineto
115 104 lineto
116 104 lineto
117 104 lineto
118 104 lineto
119 104 lineto
120 104 lineto
121 104 lineto
122 104 lineto
123 104 lineto
124 104 lineto
125 104 lineto
126 104 lineto
127 104 lineto
128 104 lineto
129 104 lineto
130 104 lineto
131 104 lineto
132 104 lineto
133 104 lineto
134 104 lineto
135 104 lineto
136 104 lineto
137 104 lineto
138 104 lineto
139 104 lineto
140 104 lineto
141 104 lineto
142 104 lineto
143 104 lineto
144 104 lineto
145 104 lineto
146 104 lineto
147 104 lineto
148 104 lineto
149 104 lineto
150 104 lineto
151 104 lineto
152 104 lineto
153 104 lineto
154 104 lineto
155 104 lineto
156 104 lineto
157 104 lineto
158 104 lineto
159 104 lineto
160 104 lineto
161 104 lineto
162 104 lineto
163 104 lineto
164 104 lineto
165 104 lineto
166 104 lineto
167 104 lineto
168 104 lineto
169 104 lineto
170 104 lineto
171 104 lineto
172 104 lineto
173 104 lineto
174 104 lineto
174 105 lineto
175 105 lineto
176 105 lineto
177 105 lineto
178 105 lineto
179 105 lineto
180 105 lineto
181 105 lineto
181 106 lineto
182 106 lineto
183 106 lineto
184 106 lineto
185 106 lineto
186 106 lineto
186 107 lineto
187 107 lineto
188 107 lineto
189 107 lineto
190 107 lineto
190 108 lineto
191 108 lineto
192 108 lineto
193 108 lineto
193 109 lineto
194 109 lineto
195 109 lineto
196 109 lineto
197 110 lineto
198 110 lineto
199 110 lineto
199 111 lineto
200 111 lineto
201 111 lineto
202 111 lineto
202 112 lineto
203 112 lineto
204 112 lineto
205 112 lineto
205 113 lineto
206 113 lineto
207 113 lineto
207 114 lineto
208 114 lineto
209 114 lineto
209 115 lineto
210 115 lineto
211 115 lineto
212 115 lineto
212 116 lineto
213 116 lineto
214 116 lineto
214 117 lineto
215 117 lineto
216 117 lineto
216 118 lineto
217 118 lineto
218 118 lineto
218 119 lineto
219 119 lineto
220 119 lineto
220 120 lineto
221 120 lineto
222 120 lineto
222 121 lineto
223 121 lineto
224 121 lineto
224 122 lineto
225 122 lineto
225 123 lineto
226 123 lineto
227 123 lineto
227 124 lineto
228 124 lineto
229 124 lineto
229 125 lineto
230 125 lineto
231 125 lineto
231 126 lineto
232 126 lineto
232 127 lineto
233 127 lineto
234 127 lineto
234 128 lineto
235 128 lineto
236 128 lineto
236 129 lineto
237 129 lineto
237 130 lineto
238 130 lineto
239 130 lineto
239 131 lineto
240 131 lineto
240 132 lineto
241 132 lineto
242 132 lineto
242 133 lineto
243 133 lineto
244 134 lineto
245 134 lineto
245 135 lineto
246 135 lineto
246 136 lineto
247 136 lineto
248 136 lineto
248 137 lineto
249 137 lineto
249 138 lineto
250 138 lineto
251 138 lineto
251 139 lineto
252 139 lineto
252 140 lineto
253 140 lineto
254 141 lineto
255 141 lineto
255 142 lineto
256 142 lineto
256 143 lineto
257 143 lineto
258 143 lineto
258 144 lineto
259 144 lineto
259 145 lineto
260 145 lineto
260 146 lineto
261 146 lineto
262 147 lineto
263 147 lineto
263 148 lineto
264 148 lineto
264 149 lineto
265 149 lineto
265 150 lineto
266 150 lineto
267 150 lineto
267 151 lineto
268 151 lineto
268 152 lineto
269 152 lineto
269 153 lineto
270 153 lineto
270 154 lineto
271 154 lineto
272 154 lineto
272 155 lineto
273 155 lineto
273 156 lineto
274 156 lineto
274 157 lineto
275 157 lineto
275 158 lineto
276 158 lineto
276 159 lineto
277 159 lineto
278 159 lineto
278 160 lineto
279 160 lineto
279 161 lineto
280 161 lineto
280 162 lineto
281 162 lineto
281 163 lineto
282 163 lineto
282 164 lineto
283 164 lineto
284 165 lineto
285 165 lineto
285 166 lineto
286 166 lineto
286 167 lineto
287 167 lineto
287 168 lineto
288 168 lineto
288 169 lineto
289 169 lineto
289 170 lineto
290 170 lineto
290 171 lineto
291 171 lineto
291 172 lineto
292 172 lineto
292 173 lineto
293 173 lineto
294 174 lineto
295 175 lineto
296 175 lineto
296 176 lineto
297 176 lineto
297 177 lineto
298 177 lineto
298 178 lineto
299 178 lineto
299 179 lineto
300 179 lineto
300 180 lineto
301 180 lineto
301 181 lineto
302 181 lineto
302 182 lineto
303 182 lineto
303 183 lineto
304 183 lineto
304 184 lineto
305 184 lineto
305 185 lineto
306 185 lineto
306 186 lineto
307 186 lineto
307 187 lineto
308 187 lineto
308 188 lineto
309 188 lineto
309 189 lineto
310 189 lineto
310 190 lineto
311 190 lineto
311 191 lineto
312 191 lineto
312 192 lineto
313 192 lineto
313 193 lineto
314 193 lineto
314 194 lineto
315 194 lineto
315 195 lineto
316 195 lineto
316 196 lineto
317 196 lineto
317 197 lineto
318 197 lineto
318 198 lineto
319 198 lineto
319 199 lineto
320 199 lineto
320 200 lineto
321 200 lineto
321 201 lineto
322 201 lineto
322 202 lineto
323 202 lineto
323 203 lineto
324 203 lineto
324 204 lineto
325 204 lineto
325 205 lineto
326 205 lineto
326 206 lineto
327 206 lineto
327 207 lineto
328 207 lineto
328 208 lineto
329 208 lineto
329 209 lineto
330 209 lineto
330 210 lineto
331 210 lineto
331 211 lineto
332 211 lineto
332 212 lineto
333 212 lineto
333 213 lineto
334 213 lineto
334 214 lineto
335 214 lineto
335 215 lineto
336 216 lineto
337 217 lineto
337 218 lineto
338 218 lineto
338 219 lineto
339 219 lineto
339 220 lineto
340 220 lineto
340 221 lineto
341 221 lineto
341 222 lineto
342 222 lineto
342 223 lineto
343 223 lineto
343 224 lineto
344 224 lineto
344 225 lineto
345 225 lineto
345 226 lineto
346 226 lineto
346 227 lineto
347 228 lineto
347 229 lineto
348 229 lineto
348 230 lineto
349 230 lineto
349 231 lineto
350 231 lineto
350 232 lineto
351 232 lineto
351 233 lineto
352 233 lineto
352 234 lineto
353 234 lineto
353 235 lineto
354 235 lineto
354 236 lineto
355 237 lineto
355 238 lineto
356 238 lineto
356 239 lineto
357 239 lineto
357 240 lineto
358 240 lineto
358 241 lineto
359 241 lineto
359 242 lineto
360 242 lineto
360 243 lineto
361 243 lineto
361 244 lineto
362 244 lineto
362 245 lineto
362 246 lineto
363 246 lineto
363 247 lineto
364 247 lineto
364 248 lineto
365 248 lineto
365 249 lineto
366 249 lineto
366 250 lineto
367 250 lineto
367 251 lineto
368 252 lineto
368 253 lineto
369 253 lineto
369 254 lineto
370 254 lineto
370 255 lineto
371 255 lineto
371 256 lineto
372 256 lineto
372 257 lineto
373 257 lineto
373 258 lineto
374 259 lineto
374 260 lineto
375 260 lineto
375 261 lineto
376 261 lineto
376 262 lineto
377 262 lineto
377 263 lineto
378 263 lineto
378 264 lineto
379 264 lineto
379 265 lineto
379 266 lineto
380 266 lineto
380 267 lineto
381 267 lineto
381 268 lineto
382 268 lineto
382 269 lineto
383 269 lineto
383 270 lineto
384 271 lineto
384 272 lineto
385 272 lineto
385 273 lineto
386 273 lineto
386 274 lineto
387 274 lineto
387 275 lineto
388 275 lineto
388 276 lineto
389 277 lineto
389 278 lineto
390 278 lineto
390 279 lineto
391 279 lineto
391 280 lineto
392 280 lineto
392 281 lineto
393 281 lineto
393 282 lineto
393 283 lineto
394 283 lineto
394 284 lineto
395 284 lineto
395 285 lineto
396 285 lineto
396 286 lineto
397 286 lineto
397 287 lineto
397 288 lineto
398 288 lineto
398 289 lineto
399 289 lineto
399 290 lineto
400 290 lineto
400 291 lineto
401 291 lineto
401 292 lineto
401 293 lineto
402 293 lineto
402 294 lineto
403 294 lineto
403 295 lineto
404 295 lineto
404 296 lineto
405 296 lineto
405 297 lineto
406 298 lineto
406 299 lineto
407 299 lineto
407 300 lineto
408 300 lineto
408 301 lineto
409 301 lineto
409 302 lineto
409 303 lineto
410 303 lineto
410 304 lineto
411 304 lineto
411 305 lineto
412 305 lineto
412 306 lineto
413 307 lineto
413 308 lineto
414 308 lineto
414 309 lineto
415 309 lineto
415 310 lineto
416 310 lineto
416 311 lineto
416 312 lineto
417 312 lineto
417 313 lineto
418 313 lineto
418 314 lineto
419 314 lineto
419 315 lineto
420 315 lineto
420 316 lineto
420 317 lineto
421 317 lineto
421 318 lineto
422 318 lineto
422 319 lineto
423 319 lineto
423 320 lineto
424 321 lineto
424 322 lineto
425 322 lineto
425 323 lineto
426 323 lineto
426 324 lineto
427 325 lineto
427 326 lineto
428 326 lineto
428 327 lineto
429 327 lineto
429 328 lineto
430 328 lineto
430 329 lineto
430 330 lineto
431 330 lineto
431 331 lineto
432 331 lineto
432 332 lineto
433 332 lineto
433 333 lineto
434 334 lineto
434 335 lineto
435 335 lineto
435 336 lineto
436 336 lineto
436 337 lineto
437 338 lineto
437 339 lineto
438 339 lineto
438 340 lineto
439 340 lineto
439 341 lineto
440 341 lineto
440 342 lineto
440 343 lineto
441 343 lineto
441 344 lineto
442 344 lineto
442 345 lineto
443 345 lineto
443 346 lineto
443 347 lineto
444 347 lineto
444 348 lineto
445 348 lineto
445 349 lineto
446 350 lineto
446 351 lineto
447 351 lineto
447 352 lineto
448 352 lineto
448 353 lineto
449 353 lineto
449 354 lineto
449 355 lineto
450 355 lineto
450 356 lineto
451 356 lineto
451 357 lineto
452 357 lineto
452 358 lineto
452 359 lineto
453 359 lineto
453 360 lineto
454 360 lineto
454 361 lineto
455 361 lineto
455 362 lineto
455 363 lineto
456 363 lineto
456 364 lineto
457 364 lineto
457 365 lineto
458 366 lineto
458 367 lineto
459 367 lineto
459 368 lineto
460 368 lineto
460 369 lineto
461 370 lineto
461 371 lineto
462 371 lineto
462 372 lineto
463 372 lineto
463 373 lineto
464 374 lineto
464 375 lineto
465 375 lineto
465 376 lineto
466 376 lineto
466 377 lineto
466 378 lineto
467 378 lineto
467 379 lineto
468 379 lineto
468 380 lineto
469 380 lineto
469 381 lineto
469 382 lineto
470 382 lineto
470 383 lineto
471 383 lineto
471 384 lineto
472 385 lineto
472 386 lineto
473 386 lineto
473 387 lineto
474 387 lineto
474 388 lineto
475 389 lineto
475 390 lineto
476 390 lineto
476 391 lineto
477 391 lineto
477 392 lineto
477 393 lineto
478 393 lineto
478 394 lineto
479 394 lineto
479 395 lineto
480 395 lineto
480 396 lineto
480 397 lineto
481 397 lineto
481 398 lineto
482 398 lineto
482 399 lineto
483 400 lineto
483 401 lineto
484 401 lineto
484 402 lineto
485 402 lineto
485 403 lineto
485 404 lineto
486 404 lineto
486 405 lineto
487 405 lineto
487 406 lineto
488 406 lineto
488 407 lineto
488 408 lineto
489 408 lineto
489 409 lineto
490 409 lineto
490 410 lineto
491 411 lineto
491 412 lineto
492 412 lineto
492 413 lineto
493 413 lineto
493 414 lineto
493 415 lineto
494 415 lineto
494 416 lineto
495 416 lineto
495 417 lineto
496 418 lineto
496 419 lineto
497 419 lineto
497 420 lineto
498 420 lineto
498 421 lineto
499 422 lineto
499 423 lineto
500 423 lineto
500 424 lineto
501 424 lineto
501 425 lineto
501 426 lineto
502 426 lineto
502 427 lineto
503 427 lineto
503 428 lineto
504 429 lineto
504 430 lineto
505 430 lineto
505 431 lineto
506 431 lineto
506 432 lineto
506 433 lineto
507 433 lineto
507 434 lineto
508 434 lineto
508 435 lineto
509 436 lineto
509 437 lineto
510 437 lineto
510 438 lineto
511 438 lineto
511 439 lineto
511 440 lineto
512 440 lineto
512 441 lineto
513 441 lineto
513 442 lineto
514 443 lineto
514 444 lineto
515 444 lineto
515 445 lineto
516 445 lineto
516 446 lineto
516 447 lineto
517 447 lineto
517 448 lineto
518 448 lineto
518 449 lineto
519 450 lineto
519 451 lineto
520 451 lineto
520 452 lineto
521 452 lineto
521 453 lineto
521 454 lineto
522 454 lineto
522 455 lineto
523 455 lineto
523 456 lineto
524 457 lineto
524 458 lineto
525 458 lineto
525 459 lineto
526 459 lineto
526 460 lineto
526 461 lineto
527 461 lineto
527 462 lineto
528 462 lineto
528 463 lineto
529 464 lineto
529 465 lineto
530 465 lineto
530 466 lineto
531 466 lineto
531 467 lineto
531 468 lineto
532 468 lineto
532 469 lineto
533 469 lineto
533 470 lineto
534 471 lineto
534 472 lineto
535 472 lineto
535 473 lineto
536 473 lineto
536 474 lineto
536 475 lineto
537 475 lineto
537 476 lineto
538 476 lineto
538 477 lineto
539 478 lineto
539 479 lineto
540 479 lineto
540 480 lineto
541 480 lineto
541 481 lineto
541 482 lineto
542 482 lineto
542 483 lineto
543 483 lineto
543 484 lineto
543 485 lineto
544 485 lineto
544 486 lineto
545 486 lineto
545 487 lineto
546 488 lineto
546 489 lineto
547 489 lineto
547 490 lineto
548 490 lineto
548 491 lineto
548 492 lineto
549 492 lineto
549 493 lineto
550 493 lineto
550 494 lineto
551 495 lineto
551 496 lineto
552 496 lineto
552 497 lineto
553 497 lineto
553 498 lineto
553 499 lineto
554 499 lineto
554 500 lineto
555 500 lineto
555 501 lineto
556 502 lineto
556 503 lineto
557 503 lineto
557 504 lineto
558 504 lineto
558 505 lineto
558 506 lineto
559 506 lineto
559 507 lineto
560 507 lineto
560 508 lineto
561 509 lineto
561 510 lineto
562 510 lineto
562 511 lineto
563 511 lineto
563 512 lineto
563 513 lineto
564 513 lineto
564 514 lineto
565 514 lineto
565 515 lineto
566 516 lineto
566 517 lineto
567 517 lineto
567 518 lineto
568 518 lineto
568 519 lineto
stroke
newpath
78 104 moveto
79 104 lineto
80 104 lineto
81 104 lineto
82 104 lineto
83 104 lineto
84 104 lineto
85 104 lineto
86 104 lineto
87 104 lineto
88 104 lineto
89 104 lineto
90 104 lineto
91 104 lineto
92 104 lineto
93 104 lineto
94 104 lineto
95 104 lineto
96 104 lineto
97 104 lineto
98 104 lineto
99 104 lineto
100 104 lineto
101 104 lineto
102 104 lineto
103 104 lineto
104 104 lineto
105 104 lineto
106 104 lineto
107 104 lineto
108 104 lineto
109 104 lineto
110 104 lineto
111 104 lineto
112 104 lineto
113 104 lineto
114 104 lineto
115 104 lineto
116 104 lineto
117 104 lineto
118 104 lineto
119 104 lineto
120 104 lineto
121 104 lineto
122 104 lineto
123 104 lineto
124 104 lineto
125 104 lineto
126 104 lineto
127 104 lineto
128 104 lineto
129 104 lineto
130 104 lineto
131 104 lineto
132 104 lineto
133 104 lineto
134 104 lineto
135 104 lineto
136 104 lineto
137 104 lineto
138 104 lineto
139 104 lineto
140 104 lineto
141 104 lineto
142 104 lineto
143 104 lineto
144 104 lineto
145 104 lineto
146 104 lineto
147 104 lineto
148 104 lineto
149 104 lineto
150 104 lineto
151 104 lineto
152 104 lineto
153 104 lineto
154 104 lineto
155 104 lineto
156 104 lineto
157 104 lineto
158 104 lineto
159 104 lineto
160 104 lineto
161 104 lineto
162 104 lineto
163 104 lineto
164 104 lineto
165 104 lineto
166 104 lineto
167 104 lineto
168 104 lineto
169 104 lineto
170 104 lineto
171 104 lineto
172 104 lineto
173 104 lineto
173 105 lineto
174 105 lineto
175 105 lineto
176 105 lineto
177 105 lineto
178 105 lineto
179 105 lineto
180 105 lineto
181 105 lineto
181 106 lineto
182 106 lineto
183 106 lineto
184 106 lineto
185 106 lineto
186 106 lineto
186 107 lineto
187 107 lineto
188 107 lineto
189 107 lineto
190 107 lineto
190 108 lineto
191 108 lineto
192 108 lineto
193 108 lineto
193 109 lineto
194 109 lineto
195 109 lineto
196 109 lineto
196 110 lineto
197 110 lineto
198 110 lineto
199 110 lineto
199 111 lineto
200 111 lineto
201 111 lineto
202 112 lineto
203 112 lineto
204 112 lineto
204 113 lineto
205 113 lineto
206 113 lineto
206 114 lineto
207 114 lineto
208 114 lineto
209 114 lineto
209 115 lineto
210 115 lineto
211 115 lineto
211 116 lineto
212 116 lineto
213 116 lineto
213 117 lineto
214 117 lineto
215 117 lineto
215 118 lineto
216 118 lineto
217 118 lineto
217 119 lineto
218 119 lineto
219 119 lineto
219 120 lineto
220 120 lineto
221 120 lineto
221 121 lineto
222 121 lineto
223 121 lineto
223 122 lineto
224 122 lineto
225 122 lineto
225 123 lineto
226 123 lineto
227 124 lineto
228 124 lineto
228 125 lineto
229 125 lineto
230 125 lineto
230 126 lineto
231 126 lineto
232 126 lineto
232 127 lineto
233 127 lineto
233 128 lineto
234 128 lineto
235 128 lineto
235 129 lineto
236 129 lineto
237 130 lineto
238 130 lineto
238 131 lineto
239 131 lineto
240 131 lineto
240 132 lineto
241 132 lineto
241 133 lineto
242 133 lineto
243 133 lineto
243 134 lineto
244 134 lineto
244 135 lineto
245 135 lineto
246 135 lineto
246 136 lineto
247 136 lineto
247 137 lineto
248 137 lineto
249 138 lineto
250 138 lineto
250 139 lineto
251 139 lineto
251 140 lineto
252 140 lineto
253 140 lineto
253 141 lineto
254 141 lineto
254 142 lineto
255 142 lineto
255 143 lineto
256 143 lineto
257 143 lineto
257 144 lineto
258 144 lineto
258 145 lineto
259 145 lineto
259 146 lineto
260 146 lineto
261 146 lineto
261 147 lineto
262 147 lineto
262 148 lineto
263 148 lineto
263 149 lineto
264 149 lineto
265 150 lineto
266 150 lineto
266 151 lineto
267 151 lineto
267 152 lineto
268 152 lineto
268 153 lineto
269 153 lineto
269 154 lineto
270 154 lineto
271 154 lineto
271 155 lineto
272 155 lineto
272 156 lineto
273 156 lineto
273 157 lineto
274 157 lineto
274 158 lineto
275 158 lineto
276 159 lineto
277 159 lineto
277 160 lineto
278 160 lineto
278 161 lineto
279 161 lineto
279 162 lineto
280 162 lineto
280 163 lineto
281 163 lineto
281 164 lineto
282 164 lineto
283 165 lineto
284 165 lineto
284 166 lineto
285 166 lineto
285 167 lineto
286 167 lineto
286 168 lineto
287 168 lineto
287 169 lineto
288 169 lineto
288 170 lineto
289 170 lineto
289 171 lineto
290 171 lineto
290 172 lineto
291 172 lineto
291 173 lineto
292 173 lineto
292 174 lineto
293 174 lineto
294 175 lineto
295 176 lineto
296 176 lineto
296 177 lineto
297 177 lineto
297 178 lineto
298 178 lineto
298 179 lineto
299 179 lineto
299 180 lineto
300 180 lineto
300 181 lineto
301 181 lineto
301 182 lineto
302 182 lineto
302 183 lineto
303 183 lineto
303 184 lineto
304 184 lineto
304 185 lineto
305 185 lineto
305 186 lineto
306 186 lineto
306 187 lineto
307 187 lineto
307 188 lineto
308 188 lineto
308 189 lineto
309 189 lineto
309 190 lineto
310 190 lineto
310 191 lineto
311 191 lineto
311 192 lineto
312 192 lineto
312 193 lineto
313 193 lineto
313 194 lineto
314 194 lineto
314 195 lineto
315 195 lineto
315 196 lineto
316 196 lineto
316 197 lineto
317 197 lineto
317 198 lineto
318 198 lineto
318 199 lineto
319 199 lineto
319 200 lineto
320 200 lineto
320 201 lineto
321 201 lineto
321 202 lineto
322 202 lineto
322 203 lineto
323 203 lineto
323 204 lineto
324 204 lineto
324 205 lineto
325 205 lineto
325 206 lineto
326 206 lineto
326 207 lineto
327 207 lineto
327 208 lineto
328 208 lineto
328 209 lineto
329 210 lineto
330 211 lineto
330 212 lineto
331 212 lineto
331 213 lineto
332 213 lineto
332 214 lineto
333 214 lineto
333 215 lineto
334 215 lineto
334 216 lineto
335 216 lineto
335 217 lineto
336 217 lineto
336 218 lineto
337 218 lineto
337 219 lineto
338 219 lineto
338 220 lineto
339 220 lineto
339 221 lineto
340 221 lineto
340 222 lineto
341 223 lineto
342 224 lineto
342 225 lineto
343 225 lineto
343 226 lineto
344 226 lineto
344 227 lineto
345 227 lineto
345 228 lineto
346 228 lineto
346 229 lineto
347 229 lineto
347 230 lineto
348 230 lineto
348 231 lineto
349 231 lineto
349 232 lineto
350 233 lineto
350 234 lineto
351 234 lineto
351 235 lineto
352 235 lineto
352 236 lineto
353 236 lineto
353 237 lineto
354 237 lineto
354 238 lineto
355 238 lineto
355 239 lineto
356 239 lineto
356 240 lineto
357 241 lineto
357 242 lineto
358 242 lineto
358 243 lineto
359 243 lineto
359 244 lineto
360 244 lineto
360 245 lineto
361 245 lineto
361 246 lineto
362 246 lineto
362 247 lineto
362 248 lineto
363 248 lineto
363 249 lineto
364 249 lineto
364 250 lineto
365 250 lineto
365 251 lineto
366 251 lineto
366 252 lineto
367 252 lineto
367 253 lineto
368 254 lineto
368 255 lineto
369 255 lineto
369 256 lineto
370 256 lineto
370 257 lineto
371 257 lineto
371 258 lineto
372 258 lineto
372 259 lineto
373 259 lineto
373 260 lineto
373 261 lineto
374 261 lineto
374 262 lineto
375 262 lineto
375 263 lineto
376 263 lineto
376 264 lineto
377 264 lineto
377 265 lineto
378 266 lineto
378 267 lineto
379 267 lineto
379 268 lineto
380 268 lineto
380 269 lineto
381 269 lineto
381 270 lineto
382 270 lineto
382 271 lineto
383 272 lineto
383 273 lineto
384 273 lineto
384 274 lineto
385 274 lineto
385 275 lineto
386 275 lineto
386 276 lineto
387 276 lineto
387 277 lineto
387 278 lineto
388 278 lineto
388 279 lineto
389 279 lineto
389 280 lineto
390 280 lineto
390 281 lineto
391 281 lineto
391 282 lineto
391 283 lineto
392 283 lineto
392 284 lineto
393 284 lineto
393 285 lineto
394 285 lineto
394 286 lineto
395 286 lineto
395 287 lineto
395 288 lineto
396 288 lineto
396 289 lineto
397 289 lineto
397 290 lineto
398 290 lineto
398 291 lineto
399 292 lineto
399 293 lineto
400 293 lineto
400 294 lineto
401 294 lineto
401 295 lineto
402 295 lineto
402 296 lineto
402 297 lineto
403 297 lineto
403 298 lineto
404 298 lineto
404 299 lineto
405 299 lineto
405 300 lineto
406 300 lineto
406 301 lineto
406 302 lineto
407 302 lineto
407 303 lineto
408 303 lineto
408 304 lineto
409 304 lineto
409 305 lineto
410 306 lineto
410 307 lineto
411 307 lineto
411 308 lineto
412 308 lineto
412 309 lineto
413 309 lineto
413 310 lineto
413 311 lineto
414 311 lineto
414 312 lineto
415 312 lineto
415 313 lineto
416 313 lineto
416 314 lineto
416 315 lineto
417 315 lineto
417 316 lineto
418 316 lineto
418 317 lineto
419 317 lineto
419 318 lineto
420 319 lineto
420 320 lineto
421 320 lineto
421 321 lineto
422 321 lineto
422 322 lineto
423 323 lineto
423 324 lineto
424 324 lineto
424 325 lineto
425 325 lineto
425 326 lineto
426 326 lineto
426 327 lineto
426 328 lineto
427 328 lineto
427 329 lineto
428 329 lineto
428 330 lineto
429 330 lineto
429 331 lineto
429 332 lineto
430 332 lineto
430 333 lineto
431 333 lineto
431 334 lineto
432 335 lineto
432 336 lineto
433 336 lineto
433 337 lineto
434 337 lineto
434 338 lineto
435 338 lineto
435 339 lineto
435 340 lineto
436 340 lineto
436 341 lineto
437 341 lineto
437 342 lineto
438 343 lineto
438 344 lineto
439 344 lineto
439 345 lineto
440 345 lineto
440 346 lineto
441 347 lineto
441 348 lineto
442 348 lineto
442 349 lineto
443 349 lineto
443 350 lineto
443 351 lineto
444 351 lineto
444 352 lineto
445 352 lineto
445 353 lineto
446 353 lineto
446 354 lineto
446 355 lineto
447 355 lineto
447 356 lineto
448 356 lineto
448 357 lineto
449 357 lineto
449 358 lineto
449 359 lineto
450 359 lineto
450 360 lineto
451 360 lineto
451 361 lineto
451 362 lineto
452 362 lineto
452 363 lineto
453 363 lineto
453 364 lineto
454 364 lineto
454 365 lineto
454 366 lineto
455 366 lineto
455 367 lineto
456 367 lineto
456 368 lineto
457 369 lineto
457 370 lineto
458 370 lineto
458 371 lineto
459 371 lineto
459 372 lineto
460 373 lineto
460 374 lineto
461 374 lineto
461 375 lineto
462 375 lineto
462 376 lineto
462 377 lineto
463 377 lineto
463 378 lineto
464 378 lineto
464 379 lineto
465 380 lineto
465 381 lineto
466 381 lineto
466 382 lineto
467 382 lineto
467 383 lineto
467 384 lineto
468 384 lineto
468 385 lineto
469 385 lineto
469 386 lineto
470 387 lineto
470 388 lineto
471 388 lineto
471 389 lineto
472 389 lineto
472 390 lineto
472 391 lineto
473 391 lineto
473 392 lineto
474 392 lineto
474 393 lineto
475 394 lineto
475 395 lineto
476 395 lineto
476 396 lineto
477 396 lineto
477 397 lineto
477 398 lineto
478 398 lineto
478 399 lineto
479 399 lineto
479 400 lineto
479 401 lineto
480 401 lineto
480 402 lineto
481 402 lineto
481 403 lineto
482 404 lineto
482 405 lineto
483 405 lineto
483 406 lineto
484 406 lineto
484 407 lineto
484 408 lineto
485 408 lineto
485 409 lineto
486 409 lineto
486 410 lineto
486 411 lineto
487 411 lineto
487 412 lineto
488 412 lineto
488 413 lineto
489 413 lineto
489 414 lineto
489 415 lineto
490 415 lineto
490 416 lineto
491 416 lineto
491 417 lineto
491 418 lineto
492 418 lineto
492 419 lineto
493 419 lineto
493 420 lineto
493 421 lineto
494 421 lineto
494 422 lineto
495 422 lineto
495 423 lineto
496 424 lineto
496 425 lineto
497 425 lineto
497 426 lineto
498 426 lineto
498 427 lineto
498 428 lineto
499 428 lineto
499 429 lineto
500 429 lineto
500 430 lineto
500 431 lineto
501 431 lineto
501 432 lineto
502 432 lineto
502 433 lineto
502 434 lineto
503 434 lineto
503 435 lineto
504 435 lineto
504 436 lineto
504 437 lineto
505 437 lineto
505 438 lineto
506 438 lineto
506 439 lineto
507 440 lineto
507 441 lineto
508 441 lineto
508 442 lineto
509 442 lineto
509 443 lineto
509 444 lineto
510 444 lineto
510 445 lineto
511 445 lineto
511 446 lineto
511 447 lineto
512 447 lineto
512 448 lineto
513 448 lineto
513 449 lineto
513 450 lineto
514 450 lineto
514 451 lineto
515 451 lineto
515 452 lineto
515 453 lineto
516 453 lineto
516 454 lineto
517 454 lineto
517 455 lineto
518 456 lineto
518 457 lineto
519 457 lineto
519 458 lineto
520 459 lineto
520 460 lineto
521 460 lineto
521 461 lineto
522 461 lineto
522 462 lineto
522 463 lineto
523 463 lineto
523 464 lineto
524 464 lineto
524 465 lineto
524 466 lineto
525 466 lineto
525 467 lineto
526 467 lineto
526 468 lineto
526 469 lineto
527 469 lineto
527 470 lineto
528 470 lineto
528 471 lineto
528 472 lineto
529 472 lineto
529 473 lineto
530 473 lineto
530 474 lineto
530 475 lineto
531 475 lineto
531 476 lineto
532 476 lineto
532 477 lineto
533 478 lineto
533 479 lineto
534 479 lineto
534 480 lineto
534 481 lineto
535 481 lineto
535 482 lineto
536 482 lineto
536 483 lineto
537 484 lineto
537 485 lineto
538 485 lineto
538 486 lineto
539 487 lineto
539 488 lineto
540 488 lineto
540 489 lineto
541 490 lineto
541 491 lineto
542 491 lineto
542 492 lineto
543 492 lineto
543 493 lineto
543 494 lineto
544 494 lineto
544 495 lineto
545 496 lineto
545 497 lineto
546 497 lineto
546 498 lineto
547 498 lineto
547 499 lineto
547 500 lineto
548 500 lineto
548 501 lineto
549 502 lineto
549 503 lineto
550 503 lineto
550 504 lineto
551 504 lineto
551 505 lineto
551 506 lineto
552 506 lineto
552 507 lineto
553 507 lineto
553 508 lineto
553 509 lineto
554 509 lineto
554 510 lineto
555 511 lineto
555 512 lineto
556 512 lineto
556 513 lineto
557 513 lineto
557 514 lineto
557 515 lineto
558 515 lineto
558 516 lineto
559 517 lineto
559 518 lineto
560 518 lineto
560 519 lineto
561 519 lineto
561 520 lineto
561 521 lineto
562 521 lineto
562 522 lineto
563 522 lineto
563 523 lineto
563 524 lineto
564 524 lineto
564 525 lineto
565 526 lineto
565 527 lineto
566 527 lineto
566 528 lineto
567 528 lineto
567 529 lineto
567 530 lineto
568 530 lineto
568 531 lineto
stroke
showpage
%%EOF
